{
    "m_SGVersion": 2,
    "m_Type": "UnityEditor.ShaderGraph.GraphData",
    "m_ObjectId": "4191ff6e77b14db195f076d097a10731",
    "m_Properties": [
        {
            "m_Id": "02816270fff54d8d8d79d1d690c8c1bd"
        },
        {
            "m_Id": "c0de84001f1c7189a416c01bb231f4a7"
        },
        {
            "m_Id": "b9e11bcd608f1d8ba600271e57900288"
        },
        {
            "m_Id": "50dc4f36615f498d963b38431d3a8fc0"
        },
        {
            "m_Id": "b4a6a7eea80d918a80009c4d747e66f9"
        },
        {
            "m_Id": "eaeb04a10e589689b98b59dfeaf08cc5"
        },
        {
            "m_Id": "ae69cb90b642058994bb6d8bbdca78ca"
        },
        {
            "m_Id": "2eb659f95437db86ae5f1316a32879c8"
        },
        {
            "m_Id": "e84dd203e4b14c8f864c768192787933"
        },
        {
            "m_Id": "a77ad572d06f20828aaea6819f51ba20"
        },
        {
            "m_Id": "25905f3a396a9b8a9bc9c044aa41bce6"
        },
        {
            "m_Id": "c778e3accb168a84bcb9704acac6016f"
        },
        {
            "m_Id": "e79c5ce0fdc3f58cb35a29cc2e258bd0"
        },
        {
            "m_Id": "9fefc73e64bc128dba0eca088390b9dd"
        },
        {
            "m_Id": "de43d538ef39dc8e80eb84dc5de3b2d6"
        },
        {
            "m_Id": "37524622a09a0785a3f64e731837e4d9"
        }
    ],
    "m_Keywords": [],
    "m_Nodes": [
        {
            "m_Id": "7f7d5f5ddc900b8a9c082103e08a47c0"
        },
        {
            "m_Id": "b2e7ede9d61c418a8617621ffd31aef9"
        },
        {
            "m_Id": "0ad6a25972199b8ca80f608ae46c3e13"
        },
        {
            "m_Id": "b6b59fd6ebdf5083bab6fe902cd0f5eb"
        },
        {
            "m_Id": "2bd57952d1460c85bc5d290939431001"
        },
        {
            "m_Id": "5c52857295bc82819c4cb29b13a8ca8e"
        },
        {
            "m_Id": "82717f872281a48bac8e76cf8df81977"
        },
        {
            "m_Id": "7149518dcec1a28387634eabbffb7598"
        },
        {
            "m_Id": "2ca674e804ff2c8fab7edb36a08d3114"
        },
        {
            "m_Id": "5a59dff55b325583819e732b7092ad87"
        },
        {
            "m_Id": "4d9791c85cff068584539fd6c783cdc1"
        },
        {
            "m_Id": "6d96e5be04d35281a82c1ca2ea8df076"
        },
        {
            "m_Id": "004e1d273ac59288aafd3322fd534971"
        },
        {
            "m_Id": "4026ce90e1cd0c868caac7dcfc6bc618"
        },
        {
            "m_Id": "bfdf984dde1b698ab99cbf57aed7dad3"
        },
        {
            "m_Id": "27c096a8fc81a8888efce2ced32d85d7"
        },
        {
            "m_Id": "09d6e1293112fc85b11393b13b7ffb1d"
        },
        {
            "m_Id": "3209ad6b1918038ea10796dc87182232"
        },
        {
            "m_Id": "7c979e3c01b7a08c9bafb746f21d8edc"
        },
        {
            "m_Id": "5511a2b89791b28ea7aaf4947ee16e14"
        },
        {
            "m_Id": "601f6c1f0dad8285944afb997d087bd3"
        },
        {
            "m_Id": "125506adddcf4133b7b1a6ea27fba807"
        },
        {
            "m_Id": "cf3a2ed6b7204f2b889f51fd6817b4b1"
        },
        {
            "m_Id": "738898d1a3374844a0c29c090b0a230d"
        },
        {
            "m_Id": "ba06d07bea0d4eb893e11b380248eab7"
        },
        {
            "m_Id": "a5e0bb6b78854eaa932607aa1b2f3c5b"
        },
        {
            "m_Id": "4715948209de483fbd2e28543f637c68"
        },
        {
            "m_Id": "df0fc576274341dcb75aff55b78fd89c"
        },
        {
            "m_Id": "06b92b8802394993b22952dc34e2ce56"
        },
        {
            "m_Id": "71404769a02947618cd34a7c31af5451"
        },
        {
            "m_Id": "d10655d02e22486282baf9d493f34dee"
        },
        {
            "m_Id": "77004c944ee04a058c143902663c3a7a"
        }
    ],
    "m_GroupDatas": [
        {
            "m_Id": "a43d7bf05ba34235abeca3c6cfe9c2e3"
        },
        {
            "m_Id": "73930a5c6faf4b5499ab3aa7f59195fc"
        }
    ],
    "m_StickyNoteDatas": [],
    "m_Edges": [
        {
            "m_OutputSlot": {
                "m_Node": {
                    "m_Id": "004e1d273ac59288aafd3322fd534971"
                },
                "m_SlotId": 0
            },
            "m_InputSlot": {
                "m_Node": {
                    "m_Id": "7149518dcec1a28387634eabbffb7598"
                },
                "m_SlotId": -650692126
            }
        },
        {
            "m_OutputSlot": {
                "m_Node": {
                    "m_Id": "09d6e1293112fc85b11393b13b7ffb1d"
                },
                "m_SlotId": 0
            },
            "m_InputSlot": {
                "m_Node": {
                    "m_Id": "7149518dcec1a28387634eabbffb7598"
                },
                "m_SlotId": -2090966792
            }
        },
        {
            "m_OutputSlot": {
                "m_Node": {
                    "m_Id": "0ad6a25972199b8ca80f608ae46c3e13"
                },
                "m_SlotId": 0
            },
            "m_InputSlot": {
                "m_Node": {
                    "m_Id": "27c096a8fc81a8888efce2ced32d85d7"
                },
                "m_SlotId": 1404324792
            }
        },
        {
            "m_OutputSlot": {
                "m_Node": {
                    "m_Id": "27c096a8fc81a8888efce2ced32d85d7"
                },
                "m_SlotId": 1
            },
            "m_InputSlot": {
                "m_Node": {
                    "m_Id": "df0fc576274341dcb75aff55b78fd89c"
                },
                "m_SlotId": 0
            }
        },
        {
            "m_OutputSlot": {
                "m_Node": {
                    "m_Id": "27c096a8fc81a8888efce2ced32d85d7"
                },
                "m_SlotId": 3
            },
            "m_InputSlot": {
                "m_Node": {
                    "m_Id": "77004c944ee04a058c143902663c3a7a"
                },
                "m_SlotId": 0
            }
        },
        {
            "m_OutputSlot": {
                "m_Node": {
                    "m_Id": "2bd57952d1460c85bc5d290939431001"
                },
                "m_SlotId": 0
            },
            "m_InputSlot": {
                "m_Node": {
                    "m_Id": "7149518dcec1a28387634eabbffb7598"
                },
                "m_SlotId": -1971603830
            }
        },
        {
            "m_OutputSlot": {
                "m_Node": {
                    "m_Id": "2ca674e804ff2c8fab7edb36a08d3114"
                },
                "m_SlotId": 0
            },
            "m_InputSlot": {
                "m_Node": {
                    "m_Id": "7f7d5f5ddc900b8a9c082103e08a47c0"
                },
                "m_SlotId": 1
            }
        },
        {
            "m_OutputSlot": {
                "m_Node": {
                    "m_Id": "3209ad6b1918038ea10796dc87182232"
                },
                "m_SlotId": 0
            },
            "m_InputSlot": {
                "m_Node": {
                    "m_Id": "7149518dcec1a28387634eabbffb7598"
                },
                "m_SlotId": -23730825
            }
        },
        {
            "m_OutputSlot": {
                "m_Node": {
                    "m_Id": "4026ce90e1cd0c868caac7dcfc6bc618"
                },
                "m_SlotId": 0
            },
            "m_InputSlot": {
                "m_Node": {
                    "m_Id": "27c096a8fc81a8888efce2ced32d85d7"
                },
                "m_SlotId": 1087423348
            }
        },
        {
            "m_OutputSlot": {
                "m_Node": {
                    "m_Id": "4d9791c85cff068584539fd6c783cdc1"
                },
                "m_SlotId": 0
            },
            "m_InputSlot": {
                "m_Node": {
                    "m_Id": "7149518dcec1a28387634eabbffb7598"
                },
                "m_SlotId": -1234777942
            }
        },
        {
            "m_OutputSlot": {
                "m_Node": {
                    "m_Id": "5511a2b89791b28ea7aaf4947ee16e14"
                },
                "m_SlotId": 0
            },
            "m_InputSlot": {
                "m_Node": {
                    "m_Id": "7149518dcec1a28387634eabbffb7598"
                },
                "m_SlotId": -1675936580
            }
        },
        {
            "m_OutputSlot": {
                "m_Node": {
                    "m_Id": "5a59dff55b325583819e732b7092ad87"
                },
                "m_SlotId": 0
            },
            "m_InputSlot": {
                "m_Node": {
                    "m_Id": "6d96e5be04d35281a82c1ca2ea8df076"
                },
                "m_SlotId": 1406098571
            }
        },
        {
            "m_OutputSlot": {
                "m_Node": {
                    "m_Id": "5c52857295bc82819c4cb29b13a8ca8e"
                },
                "m_SlotId": 0
            },
            "m_InputSlot": {
                "m_Node": {
                    "m_Id": "27c096a8fc81a8888efce2ced32d85d7"
                },
                "m_SlotId": -317295890
            }
        },
        {
            "m_OutputSlot": {
                "m_Node": {
                    "m_Id": "601f6c1f0dad8285944afb997d087bd3"
                },
                "m_SlotId": 0
            },
            "m_InputSlot": {
                "m_Node": {
                    "m_Id": "27c096a8fc81a8888efce2ced32d85d7"
                },
                "m_SlotId": -178413271
            }
        },
        {
            "m_OutputSlot": {
                "m_Node": {
                    "m_Id": "6d96e5be04d35281a82c1ca2ea8df076"
                },
                "m_SlotId": 1
            },
            "m_InputSlot": {
                "m_Node": {
                    "m_Id": "7f7d5f5ddc900b8a9c082103e08a47c0"
                },
                "m_SlotId": 0
            }
        },
        {
            "m_OutputSlot": {
                "m_Node": {
                    "m_Id": "7149518dcec1a28387634eabbffb7598"
                },
                "m_SlotId": 1
            },
            "m_InputSlot": {
                "m_Node": {
                    "m_Id": "ba06d07bea0d4eb893e11b380248eab7"
                },
                "m_SlotId": 0
            }
        },
        {
            "m_OutputSlot": {
                "m_Node": {
                    "m_Id": "7149518dcec1a28387634eabbffb7598"
                },
                "m_SlotId": 2
            },
            "m_InputSlot": {
                "m_Node": {
                    "m_Id": "a5e0bb6b78854eaa932607aa1b2f3c5b"
                },
                "m_SlotId": 0
            }
        },
        {
            "m_OutputSlot": {
                "m_Node": {
                    "m_Id": "7149518dcec1a28387634eabbffb7598"
                },
                "m_SlotId": 3
            },
            "m_InputSlot": {
                "m_Node": {
                    "m_Id": "4715948209de483fbd2e28543f637c68"
                },
                "m_SlotId": 0
            }
        },
        {
            "m_OutputSlot": {
                "m_Node": {
                    "m_Id": "7149518dcec1a28387634eabbffb7598"
                },
                "m_SlotId": 4
            },
            "m_InputSlot": {
                "m_Node": {
                    "m_Id": "71404769a02947618cd34a7c31af5451"
                },
                "m_SlotId": 0
            }
        },
        {
            "m_OutputSlot": {
                "m_Node": {
                    "m_Id": "7149518dcec1a28387634eabbffb7598"
                },
                "m_SlotId": 5
            },
            "m_InputSlot": {
                "m_Node": {
                    "m_Id": "06b92b8802394993b22952dc34e2ce56"
                },
                "m_SlotId": 0
            }
        },
        {
            "m_OutputSlot": {
                "m_Node": {
                    "m_Id": "7c979e3c01b7a08c9bafb746f21d8edc"
                },
                "m_SlotId": 0
            },
            "m_InputSlot": {
                "m_Node": {
                    "m_Id": "7149518dcec1a28387634eabbffb7598"
                },
                "m_SlotId": -1649333937
            }
        },
        {
            "m_OutputSlot": {
                "m_Node": {
                    "m_Id": "7f7d5f5ddc900b8a9c082103e08a47c0"
                },
                "m_SlotId": 2
            },
            "m_InputSlot": {
                "m_Node": {
                    "m_Id": "27c096a8fc81a8888efce2ced32d85d7"
                },
                "m_SlotId": -587420300
            }
        },
        {
            "m_OutputSlot": {
                "m_Node": {
                    "m_Id": "82717f872281a48bac8e76cf8df81977"
                },
                "m_SlotId": 0
            },
            "m_InputSlot": {
                "m_Node": {
                    "m_Id": "7149518dcec1a28387634eabbffb7598"
                },
                "m_SlotId": 640949189
            }
        },
        {
            "m_OutputSlot": {
                "m_Node": {
                    "m_Id": "b2e7ede9d61c418a8617621ffd31aef9"
                },
                "m_SlotId": 0
            },
            "m_InputSlot": {
                "m_Node": {
                    "m_Id": "7149518dcec1a28387634eabbffb7598"
                },
                "m_SlotId": -765842497
            }
        },
        {
            "m_OutputSlot": {
                "m_Node": {
                    "m_Id": "b6b59fd6ebdf5083bab6fe902cd0f5eb"
                },
                "m_SlotId": 0
            },
            "m_InputSlot": {
                "m_Node": {
                    "m_Id": "6d96e5be04d35281a82c1ca2ea8df076"
                },
                "m_SlotId": 1602435136
            }
        },
        {
            "m_OutputSlot": {
                "m_Node": {
                    "m_Id": "bfdf984dde1b698ab99cbf57aed7dad3"
                },
                "m_SlotId": 0
            },
            "m_InputSlot": {
                "m_Node": {
                    "m_Id": "7149518dcec1a28387634eabbffb7598"
                },
                "m_SlotId": -814660119
            }
        }
    ],
    "m_VertexContext": {
        "m_Position": {
            "x": 294.0000305175781,
            "y": -95.00001525878906
        },
        "m_Blocks": [
            {
                "m_Id": "125506adddcf4133b7b1a6ea27fba807"
            },
            {
                "m_Id": "cf3a2ed6b7204f2b889f51fd6817b4b1"
            },
            {
                "m_Id": "738898d1a3374844a0c29c090b0a230d"
            }
        ]
    },
    "m_FragmentContext": {
        "m_Position": {
            "x": 294.0000305175781,
            "y": 104.99998474121094
        },
        "m_Blocks": [
            {
                "m_Id": "ba06d07bea0d4eb893e11b380248eab7"
            },
            {
                "m_Id": "a5e0bb6b78854eaa932607aa1b2f3c5b"
            },
            {
                "m_Id": "4715948209de483fbd2e28543f637c68"
            },
            {
                "m_Id": "df0fc576274341dcb75aff55b78fd89c"
            },
            {
                "m_Id": "06b92b8802394993b22952dc34e2ce56"
            },
            {
                "m_Id": "71404769a02947618cd34a7c31af5451"
            },
            {
                "m_Id": "d10655d02e22486282baf9d493f34dee"
            },
            {
                "m_Id": "77004c944ee04a058c143902663c3a7a"
            }
        ]
    },
    "m_PreviewData": {
        "serializedMesh": {
            "m_SerializedMesh": "{\"mesh\":{\"instanceID\":0}}",
            "m_Guid": ""
        }
    },
    "m_Path": "Shader Graphs/URP Dissolve",
    "m_ConcretePrecision": 1,
    "m_PreviewMode": 2,
    "m_OutputNode": {
        "m_Id": ""
    },
    "m_ActiveTargets": [
        {
            "m_Id": "d7cdefb281244060b573ccc7c0750a79"
        }
    ]
}

{
    "m_SGVersion": 0,
    "m_Type": "UnityEditor.ShaderGraph.PropertyNode",
    "m_ObjectId": "004e1d273ac59288aafd3322fd534971",
    "m_Group": {
        "m_Id": "73930a5c6faf4b5499ab3aa7f59195fc"
    },
    "m_Name": "Property",
    "m_DrawState": {
        "m_Expanded": true,
        "m_Position": {
            "serializedVersion": "2",
            "x": -887.0,
            "y": 0.9999867081642151,
            "width": 172.0,
            "height": 34.0
        }
    },
    "m_Slots": [
        {
            "m_Id": "b4841cebc5c0a581906c68a244e3a2b5"
        }
    ],
    "synonyms": [],
    "m_Precision": 0,
    "m_PreviewExpanded": true,
    "m_PreviewMode": 0,
    "m_CustomColors": {
        "m_SerializableColors": []
    },
    "m_Property": {
        "m_Id": "ae69cb90b642058994bb6d8bbdca78ca"
    }
}

{
    "m_SGVersion": 2,
    "m_Type": "UnityEditor.ShaderGraph.Internal.ColorShaderProperty",
    "m_ObjectId": "02816270fff54d8d8d79d1d690c8c1bd",
    "m_Guid": {
        "m_GuidSerialized": "1633d1af-a762-497e-b7e2-801754ac72dd"
    },
    "m_Name": "BaseColor",
    "m_DefaultReferenceName": "Color_155C4FC5",
    "m_OverrideReferenceName": "_BaseColor",
    "m_GeneratePropertyBlock": true,
    "m_Precision": 0,
    "overrideHLSLDeclaration": false,
    "hlslDeclarationOverride": 0,
    "m_Hidden": false,
    "m_Value": {
        "r": 1.0,
        "g": 1.0,
        "b": 1.0,
        "a": 1.0
    },
    "m_ColorMode": 0
}

{
    "m_SGVersion": 0,
    "m_Type": "UnityEditor.ShaderGraph.Vector2MaterialSlot",
    "m_ObjectId": "03ffb1b9f2d90483bcafcd1853631732",
    "m_Id": 0,
    "m_DisplayName": "NoiseUVSpeed",
    "m_SlotType": 1,
    "m_Hidden": false,
    "m_ShaderOutputName": "Out",
    "m_StageCapability": 3,
    "m_Value": {
        "x": 0.0,
        "y": 0.0
    },
    "m_DefaultValue": {
        "x": 0.0,
        "y": 0.0
    },
    "m_Labels": [
        "X",
        "Y"
    ]
}

{
    "m_SGVersion": 0,
    "m_Type": "UnityEditor.ShaderGraph.BlockNode",
    "m_ObjectId": "06b92b8802394993b22952dc34e2ce56",
    "m_Group": {
        "m_Id": ""
    },
    "m_Name": "SurfaceDescription.Smoothness",
    "m_DrawState": {
        "m_Expanded": true,
        "m_Position": {
            "serializedVersion": "2",
            "x": 0.0,
            "y": 0.0,
            "width": 0.0,
            "height": 0.0
        }
    },
    "m_Slots": [
        {
            "m_Id": "7793efcbc7ea43f095a148b9364b4668"
        }
    ],
    "synonyms": [],
    "m_Precision": 0,
    "m_PreviewExpanded": true,
    "m_PreviewMode": 0,
    "m_CustomColors": {
        "m_SerializableColors": []
    },
    "m_SerializedDescriptor": "SurfaceDescription.Smoothness"
}

{
    "m_SGVersion": 0,
    "m_Type": "UnityEditor.ShaderGraph.PropertyNode",
    "m_ObjectId": "09d6e1293112fc85b11393b13b7ffb1d",
    "m_Group": {
        "m_Id": "73930a5c6faf4b5499ab3aa7f59195fc"
    },
    "m_Name": "Property",
    "m_DrawState": {
        "m_Expanded": true,
        "m_Position": {
            "serializedVersion": "2",
            "x": -715.0000610351563,
            "y": 25.999971389770509,
            "width": 142.0,
            "height": 34.0
        }
    },
    "m_Slots": [
        {
            "m_Id": "7e0bbbd11f448f88ad923b09359cacaa"
        }
    ],
    "synonyms": [],
    "m_Precision": 0,
    "m_PreviewExpanded": true,
    "m_PreviewMode": 0,
    "m_CustomColors": {
        "m_SerializableColors": []
    },
    "m_Property": {
        "m_Id": "2eb659f95437db86ae5f1316a32879c8"
    }
}

{
    "m_SGVersion": 0,
    "m_Type": "UnityEditor.ShaderGraph.Vector3MaterialSlot",
    "m_ObjectId": "0a46b14a5080178b84aee1fc75ec7d9e",
    "m_Id": 2,
    "m_DisplayName": "Out_Normal",
    "m_SlotType": 1,
    "m_Hidden": false,
    "m_ShaderOutputName": "OutNormal",
    "m_StageCapability": 2,
    "m_Value": {
        "x": 0.0,
        "y": 0.0,
        "z": 0.0
    },
    "m_DefaultValue": {
        "x": 0.0,
        "y": 0.0,
        "z": 0.0
    },
    "m_Labels": [
        "X",
        "Y",
        "Z"
    ]
}

{
    "m_SGVersion": 0,
    "m_Type": "UnityEditor.ShaderGraph.PropertyNode",
    "m_ObjectId": "0ad6a25972199b8ca80f608ae46c3e13",
    "m_Group": {
        "m_Id": "a43d7bf05ba34235abeca3c6cfe9c2e3"
    },
    "m_Name": "Property",
    "m_DrawState": {
        "m_Expanded": true,
        "m_Position": {
            "serializedVersion": "2",
            "x": -435.00006103515627,
            "y": 392.0,
            "width": 121.0,
            "height": 34.0
        }
    },
    "m_Slots": [
        {
            "m_Id": "1b70a0e6ed789a89bcf5b3a171f93f6a"
        }
    ],
    "synonyms": [],
    "m_Precision": 0,
    "m_PreviewExpanded": true,
    "m_PreviewMode": 0,
    "m_CustomColors": {
        "m_SerializableColors": []
    },
    "m_Property": {
        "m_Id": "25905f3a396a9b8a9bc9c044aa41bce6"
    }
}

{
    "m_SGVersion": 0,
    "m_Type": "UnityEditor.ShaderGraph.Vector1MaterialSlot",
    "m_ObjectId": "0d4c349d6a1cc48c81afaa2f208ecfe6",
    "m_Id": -587420300,
    "m_DisplayName": "DissolveMask",
    "m_SlotType": 0,
    "m_Hidden": false,
    "m_ShaderOutputName": "Vector1_FAC354A",
    "m_StageCapability": 3,
    "m_Value": 0.0,
    "m_DefaultValue": 0.0,
    "m_Labels": [
        "X"
    ]
}

{
    "m_SGVersion": 0,
    "m_Type": "UnityEditor.ShaderGraph.Vector4MaterialSlot",
    "m_ObjectId": "11382c0b77af3a81a28f5eaef1fcc740",
    "m_Id": 0,
    "m_DisplayName": "Out",
    "m_SlotType": 1,
    "m_Hidden": false,
    "m_ShaderOutputName": "Out",
    "m_StageCapability": 3,
    "m_Value": {
        "x": 0.0,
        "y": 0.0,
        "z": 0.0,
        "w": 0.0
    },
    "m_DefaultValue": {
        "x": 0.0,
        "y": 0.0,
        "z": 0.0,
        "w": 0.0
    },
    "m_Labels": []
}

{
    "m_SGVersion": 0,
    "m_Type": "UnityEditor.ShaderGraph.BlockNode",
    "m_ObjectId": "125506adddcf4133b7b1a6ea27fba807",
    "m_Group": {
        "m_Id": ""
    },
    "m_Name": "VertexDescription.Position",
    "m_DrawState": {
        "m_Expanded": true,
        "m_Position": {
            "serializedVersion": "2",
            "x": 0.0,
            "y": 0.0,
            "width": 0.0,
            "height": 0.0
        }
    },
    "m_Slots": [
        {
            "m_Id": "3a46f3837f5a43b29c94ea3fb18fc71d"
        }
    ],
    "synonyms": [],
    "m_Precision": 0,
    "m_PreviewExpanded": true,
    "m_PreviewMode": 0,
    "m_CustomColors": {
        "m_SerializableColors": []
    },
    "m_SerializedDescriptor": "VertexDescription.Position"
}

{
    "m_SGVersion": 0,
    "m_Type": "UnityEditor.ShaderGraph.Vector2MaterialSlot",
    "m_ObjectId": "14ad2a29547a48e498448ee004bcb555",
    "m_Id": 1602435136,
    "m_DisplayName": "UV",
    "m_SlotType": 0,
    "m_Hidden": false,
    "m_ShaderOutputName": "Vector2_EC53CAAB",
    "m_StageCapability": 3,
    "m_Value": {
        "x": 0.0,
        "y": 0.0
    },
    "m_DefaultValue": {
        "x": 0.0,
        "y": 0.0
    },
    "m_Labels": []
}

{
    "m_SGVersion": 0,
    "m_Type": "UnityEditor.ShaderGraph.Vector2MaterialSlot",
    "m_ObjectId": "16418b633bf37b8aa2a422811a31bae0",
    "m_Id": 1406098571,
    "m_DisplayName": "UVSpeed",
    "m_SlotType": 0,
    "m_Hidden": false,
    "m_ShaderOutputName": "Vector2_36D3BA48",
    "m_StageCapability": 3,
    "m_Value": {
        "x": 0.0,
        "y": 0.0
    },
    "m_DefaultValue": {
        "x": 0.0,
        "y": 0.0
    },
    "m_Labels": [
        "X",
        "Y"
    ]
}

{
    "m_SGVersion": 0,
    "m_Type": "UnityEditor.ShaderGraph.Texture2DMaterialSlot",
    "m_ObjectId": "1813739a8ba0e08a865916ee6a36a391",
    "m_Id": 0,
    "m_DisplayName": "R_Metallic,G_Occulsion,A_Smoothness",
    "m_SlotType": 1,
    "m_Hidden": false,
    "m_ShaderOutputName": "Out",
    "m_StageCapability": 3,
    "m_BareResource": false
}

{
    "m_SGVersion": 0,
    "m_Type": "UnityEditor.ShaderGraph.Vector1MaterialSlot",
    "m_ObjectId": "1b70a0e6ed789a89bcf5b3a171f93f6a",
    "m_Id": 0,
    "m_DisplayName": "Dissolve",
    "m_SlotType": 1,
    "m_Hidden": false,
    "m_ShaderOutputName": "Out",
    "m_StageCapability": 3,
    "m_Value": 0.0,
    "m_DefaultValue": 0.0,
    "m_Labels": [
        "X"
    ]
}

{
    "m_SGVersion": 0,
    "m_Type": "UnityEditor.ShaderGraph.NormalMaterialSlot",
    "m_ObjectId": "1c34d0bd0183444c8b9fadb371e10c79",
    "m_Id": 0,
    "m_DisplayName": "Normal",
    "m_SlotType": 0,
    "m_Hidden": false,
    "m_ShaderOutputName": "Normal",
    "m_StageCapability": 1,
    "m_Value": {
        "x": 0.0,
        "y": 0.0,
        "z": 0.0
    },
    "m_DefaultValue": {
        "x": 0.0,
        "y": 0.0,
        "z": 0.0
    },
    "m_Labels": [],
    "m_Space": 0
}

{
    "m_SGVersion": 0,
    "m_Type": "UnityEditor.ShaderGraph.Vector2MaterialSlot",
    "m_ObjectId": "1e348d0ddccd2482822da6e83f34b933",
    "m_Id": 1,
    "m_DisplayName": "Out_Vector2",
    "m_SlotType": 1,
    "m_Hidden": false,
    "m_ShaderOutputName": "OutVector2",
    "m_StageCapability": 3,
    "m_Value": {
        "x": 0.0,
        "y": 0.0
    },
    "m_DefaultValue": {
        "x": 0.0,
        "y": 0.0
    },
    "m_Labels": [
        "X",
        "Y"
    ]
}

{
    "m_SGVersion": 1,
    "m_Type": "UnityEditor.ShaderGraph.Internal.Vector1ShaderProperty",
    "m_ObjectId": "25905f3a396a9b8a9bc9c044aa41bce6",
    "m_Guid": {
        "m_GuidSerialized": "de9b3f78-ce65-4b2f-a76f-841cce5ee309"
    },
    "m_Name": "Dissolve",
    "m_DefaultReferenceName": "Vector1_A84CDDA3",
    "m_OverrideReferenceName": "_Dissolve",
    "m_GeneratePropertyBlock": true,
    "m_Precision": 0,
    "overrideHLSLDeclaration": false,
    "hlslDeclarationOverride": 0,
    "m_Hidden": false,
    "m_Value": 0.5,
    "m_FloatType": 1,
    "m_RangeValues": {
        "x": 0.0,
        "y": 1.0
    }
}

{
    "m_SGVersion": 0,
    "m_Type": "UnityEditor.ShaderGraph.Vector1MaterialSlot",
    "m_ObjectId": "27352306ea874ec0aa14254cc5fcac04",
    "m_Id": 0,
    "m_DisplayName": "Alpha",
    "m_SlotType": 0,
    "m_Hidden": false,
    "m_ShaderOutputName": "Alpha",
    "m_StageCapability": 2,
    "m_Value": 1.0,
    "m_DefaultValue": 1.0,
    "m_Labels": []
}

{
    "m_SGVersion": 0,
    "m_Type": "UnityEditor.ShaderGraph.Vector1MaterialSlot",
    "m_ObjectId": "277fae67c70a4b6082cf342c464dc9a5",
    "m_Id": 0,
    "m_DisplayName": "Metallic",
    "m_SlotType": 0,
    "m_Hidden": false,
    "m_ShaderOutputName": "Metallic",
    "m_StageCapability": 2,
    "m_Value": 0.0,
    "m_DefaultValue": 0.0,
    "m_Labels": []
}

{
    "m_SGVersion": 0,
    "m_Type": "UnityEditor.ShaderGraph.SubGraphNode",
    "m_ObjectId": "27c096a8fc81a8888efce2ced32d85d7",
    "m_Group": {
        "m_Id": "a43d7bf05ba34235abeca3c6cfe9c2e3"
    },
    "m_Name": "Dissolve Sub Graph",
    "m_DrawState": {
        "m_Expanded": true,
        "m_Position": {
            "serializedVersion": "2",
            "x": -284.0000305175781,
            "y": 352.0,
            "width": 255.0,
            "height": 350.0
        }
    },
    "m_Slots": [
        {
            "m_Id": "93a113316ca61682828eac3ed657c7e8"
        },
        {
            "m_Id": "cc8f3893bd7dd582a3d9eb5cda2b4079"
        },
        {
            "m_Id": "d8042a08fff3588ba97ab019a4d1df8a"
        },
        {
            "m_Id": "6738777a041bfb8e9313bae9043f2b7b"
        },
        {
            "m_Id": "0d4c349d6a1cc48c81afaa2f208ecfe6"
        },
        {
            "m_Id": "df5becf8383f348abf4a0772b8754edc"
        },
        {
            "m_Id": "de5083297fe2918da3877f9a4a1fc0cb"
        },
        {
            "m_Id": "8524e21beada9c81b812bf5ae6b998ae"
        }
    ],
    "synonyms": [],
    "m_Precision": 0,
    "m_PreviewExpanded": true,
    "m_PreviewMode": 0,
    "m_CustomColors": {
        "m_SerializableColors": []
    },
    "m_SerializedSubGraph": "{\n    \"subGraph\": {\n        \"fileID\": -5475051401550479605,\n        \"guid\": \"bab8923640a48a4459b7a740e97b66ec\",\n        \"type\": 3\n    }\n}",
    "m_PropertyGuids": [
        "4bbf0f7f-cb0b-4448-a342-d3ed1742668f",
        "572c9a52-f398-48fc-b460-3d2caaba3c30",
        "ca65e442-ef47-4a87-ad2e-7dba163425b0",
        "8ebb821f-d46b-411e-b2ab-1ad11b1c5475",
        "1c193898-8d0f-4af5-9556-7ce7e7993d83",
        "169ceb74-a460-4647-942f-6e595973af47",
        "d959e1e1-df04-4059-ba1e-f34a7c9b2f91"
    ],
    "m_PropertyIds": [
        1404324792,
        -1716202850,
        1478667893,
        1087423348,
        -317295890,
        -587420300,
        -178413271
    ]
}

{
    "m_SGVersion": 0,
    "m_Type": "UnityEditor.ShaderGraph.PropertyNode",
    "m_ObjectId": "2bd57952d1460c85bc5d290939431001",
    "m_Group": {
        "m_Id": "73930a5c6faf4b5499ab3aa7f59195fc"
    },
    "m_Name": "Property",
    "m_DrawState": {
        "m_Expanded": true,
        "m_Position": {
            "serializedVersion": "2",
            "x": -681.0,
            "y": -118.99999237060547,
            "width": 142.0,
            "height": 34.0
        }
    },
    "m_Slots": [
        {
            "m_Id": "804e48bc114c8d84ad4bea7e8222c70a"
        }
    ],
    "synonyms": [],
    "m_Precision": 0,
    "m_PreviewExpanded": true,
    "m_PreviewMode": 0,
    "m_CustomColors": {
        "m_SerializableColors": []
    },
    "m_Property": {
        "m_Id": "50dc4f36615f498d963b38431d3a8fc0"
    }
}

{
    "m_SGVersion": 0,
    "m_Type": "UnityEditor.ShaderGraph.PropertyNode",
    "m_ObjectId": "2ca674e804ff2c8fab7edb36a08d3114",
    "m_Group": {
        "m_Id": "a43d7bf05ba34235abeca3c6cfe9c2e3"
    },
    "m_Name": "Property",
    "m_DrawState": {
        "m_Expanded": true,
        "m_Position": {
            "serializedVersion": "2",
            "x": -667.0000610351563,
            "y": 647.9999389648438,
            "width": 134.0,
            "height": 34.0
        }
    },
    "m_Slots": [
        {
            "m_Id": "fbef70fa5e735984975eb3d82dc24d47"
        }
    ],
    "synonyms": [],
    "m_Precision": 0,
    "m_PreviewExpanded": true,
    "m_PreviewMode": 0,
    "m_CustomColors": {
        "m_SerializableColors": []
    },
    "m_Property": {
        "m_Id": "c778e3accb168a84bcb9704acac6016f"
    }
}

{
    "m_SGVersion": 0,
    "m_Type": "UnityEditor.ShaderGraph.Texture2DMaterialSlot",
    "m_ObjectId": "2d36af7846a3cb88be0bdc08766242ac",
    "m_Id": 0,
    "m_DisplayName": "BaseMap",
    "m_SlotType": 1,
    "m_Hidden": false,
    "m_ShaderOutputName": "Out",
    "m_StageCapability": 3,
    "m_BareResource": false
}

{
    "m_SGVersion": 1,
    "m_Type": "UnityEditor.ShaderGraph.Internal.Vector1ShaderProperty",
    "m_ObjectId": "2eb659f95437db86ae5f1316a32879c8",
    "m_Guid": {
        "m_GuidSerialized": "e5c32bfa-dcc1-4211-ab19-9fe5a93c077e"
    },
    "m_Name": "Smoothness",
    "m_DefaultReferenceName": "Vector1_C4D34299",
    "m_OverrideReferenceName": "_Smoothness",
    "m_GeneratePropertyBlock": true,
    "m_Precision": 0,
    "overrideHLSLDeclaration": false,
    "hlslDeclarationOverride": 0,
    "m_Hidden": false,
    "m_Value": 0.0,
    "m_FloatType": 1,
    "m_RangeValues": {
        "x": 0.0,
        "y": 1.0
    }
}

{
    "m_SGVersion": 0,
    "m_Type": "UnityEditor.ShaderGraph.PropertyNode",
    "m_ObjectId": "3209ad6b1918038ea10796dc87182232",
    "m_Group": {
        "m_Id": "73930a5c6faf4b5499ab3aa7f59195fc"
    },
    "m_Name": "Property",
    "m_DrawState": {
        "m_Expanded": true,
        "m_Position": {
            "serializedVersion": "2",
            "x": -843.0,
            "y": -95.0,
            "width": 107.0,
            "height": 34.0
        }
    },
    "m_Slots": [
        {
            "m_Id": "6705b127c1e8d181951b3161aeb0a688"
        }
    ],
    "synonyms": [],
    "m_Precision": 0,
    "m_PreviewExpanded": true,
    "m_PreviewMode": 0,
    "m_CustomColors": {
        "m_SerializableColors": []
    },
    "m_Property": {
        "m_Id": "e84dd203e4b14c8f864c768192787933"
    }
}

{
    "m_SGVersion": 0,
    "m_Type": "UnityEditor.ShaderGraph.Vector1MaterialSlot",
    "m_ObjectId": "32dfa491f88fc98187eb010a8790d286",
    "m_Id": 3,
    "m_DisplayName": "Out_Metallic",
    "m_SlotType": 1,
    "m_Hidden": false,
    "m_ShaderOutputName": "OutMetallic",
    "m_StageCapability": 2,
    "m_Value": 0.0,
    "m_DefaultValue": 0.0,
    "m_Labels": [
        "X"
    ]
}

{
    "m_SGVersion": 1,
    "m_Type": "UnityEditor.ShaderGraph.Internal.Vector1ShaderProperty",
    "m_ObjectId": "37524622a09a0785a3f64e731837e4d9",
    "m_Guid": {
        "m_GuidSerialized": "83c95ab6-f114-48a4-b51a-2dcb175e15e1"
    },
    "m_Name": "EdgeColorIntensity",
    "m_DefaultReferenceName": "Vector1_80E48523",
    "m_OverrideReferenceName": "_EdgeColorIntensity",
    "m_GeneratePropertyBlock": true,
    "m_Precision": 0,
    "overrideHLSLDeclaration": false,
    "hlslDeclarationOverride": 0,
    "m_Hidden": false,
    "m_Value": 1.0,
    "m_FloatType": 0,
    "m_RangeValues": {
        "x": 0.0,
        "y": 1.0
    }
}

{
    "m_SGVersion": 0,
    "m_Type": "UnityEditor.ShaderGraph.Vector1MaterialSlot",
    "m_ObjectId": "380c057de9fd4047b1e3d0fe315c843e",
    "m_Id": 0,
    "m_DisplayName": "Alpha Clip Threshold",
    "m_SlotType": 0,
    "m_Hidden": false,
    "m_ShaderOutputName": "AlphaClipThreshold",
    "m_StageCapability": 2,
    "m_Value": 0.0,
    "m_DefaultValue": 0.5,
    "m_Labels": []
}

{
    "m_SGVersion": 0,
    "m_Type": "UnityEditor.ShaderGraph.PositionMaterialSlot",
    "m_ObjectId": "3a46f3837f5a43b29c94ea3fb18fc71d",
    "m_Id": 0,
    "m_DisplayName": "Position",
    "m_SlotType": 0,
    "m_Hidden": false,
    "m_ShaderOutputName": "Position",
    "m_StageCapability": 1,
    "m_Value": {
        "x": 0.0,
        "y": 0.0,
        "z": 0.0
    },
    "m_DefaultValue": {
        "x": 0.0,
        "y": 0.0,
        "z": 0.0
    },
    "m_Labels": [],
    "m_Space": 0
}

{
    "m_SGVersion": 0,
    "m_Type": "UnityEditor.ShaderGraph.Vector2MaterialSlot",
    "m_ObjectId": "3d0653d9b5e0f5809038f77295b88e13",
    "m_Id": 0,
    "m_DisplayName": "Offest",
    "m_SlotType": 1,
    "m_Hidden": false,
    "m_ShaderOutputName": "Out",
    "m_StageCapability": 3,
    "m_Value": {
        "x": 0.0,
        "y": 0.0
    },
    "m_DefaultValue": {
        "x": 0.0,
        "y": 0.0
    },
    "m_Labels": [
        "X",
        "Y"
    ]
}

{
    "m_SGVersion": 0,
    "m_Type": "UnityEditor.ShaderGraph.PropertyNode",
    "m_ObjectId": "4026ce90e1cd0c868caac7dcfc6bc618",
    "m_Group": {
        "m_Id": "a43d7bf05ba34235abeca3c6cfe9c2e3"
    },
    "m_Name": "Property",
    "m_DrawState": {
        "m_Expanded": true,
        "m_Position": {
            "serializedVersion": "2",
            "x": -569.0000610351563,
            "y": 416.0,
            "width": 134.0,
            "height": 34.0
        }
    },
    "m_Slots": [
        {
            "m_Id": "d8c28d00edf8a7818aff007f6d54f96d"
        }
    ],
    "synonyms": [],
    "m_Precision": 0,
    "m_PreviewExpanded": true,
    "m_PreviewMode": 0,
    "m_CustomColors": {
        "m_SerializableColors": []
    },
    "m_Property": {
        "m_Id": "9fefc73e64bc128dba0eca088390b9dd"
    }
}

{
    "m_SGVersion": 0,
    "m_Type": "UnityEditor.ShaderGraph.Vector4MaterialSlot",
    "m_ObjectId": "425fd83e81571981ba737940a9c710a7",
    "m_Id": -1675936580,
    "m_DisplayName": "BaseColor",
    "m_SlotType": 0,
    "m_Hidden": false,
    "m_ShaderOutputName": "Color_4AE0AC13",
    "m_StageCapability": 2,
    "m_Value": {
        "x": 1.0,
        "y": 1.0,
        "z": 1.0,
        "w": 1.0
    },
    "m_DefaultValue": {
        "x": 0.0,
        "y": 0.0,
        "z": 0.0,
        "w": 0.0
    },
    "m_Labels": []
}

{
    "m_SGVersion": 0,
    "m_Type": "UnityEditor.ShaderGraph.Vector4MaterialSlot",
    "m_ObjectId": "46f53afda0996487a883e7ef866aa201",
    "m_Id": 0,
    "m_DisplayName": "EdgeColor",
    "m_SlotType": 1,
    "m_Hidden": false,
    "m_ShaderOutputName": "Out",
    "m_StageCapability": 3,
    "m_Value": {
        "x": 0.0,
        "y": 0.0,
        "z": 0.0,
        "w": 0.0
    },
    "m_DefaultValue": {
        "x": 0.0,
        "y": 0.0,
        "z": 0.0,
        "w": 0.0
    },
    "m_Labels": []
}

{
    "m_SGVersion": 0,
    "m_Type": "UnityEditor.ShaderGraph.BlockNode",
    "m_ObjectId": "4715948209de483fbd2e28543f637c68",
    "m_Group": {
        "m_Id": ""
    },
    "m_Name": "SurfaceDescription.Metallic",
    "m_DrawState": {
        "m_Expanded": true,
        "m_Position": {
            "serializedVersion": "2",
            "x": 0.0,
            "y": 0.0,
            "width": 0.0,
            "height": 0.0
        }
    },
    "m_Slots": [
        {
            "m_Id": "277fae67c70a4b6082cf342c464dc9a5"
        }
    ],
    "synonyms": [],
    "m_Precision": 0,
    "m_PreviewExpanded": true,
    "m_PreviewMode": 0,
    "m_CustomColors": {
        "m_SerializableColors": []
    },
    "m_SerializedDescriptor": "SurfaceDescription.Metallic"
}

{
    "m_SGVersion": 0,
    "m_Type": "UnityEditor.ShaderGraph.PropertyNode",
    "m_ObjectId": "4d9791c85cff068584539fd6c783cdc1",
    "m_Group": {
        "m_Id": "73930a5c6faf4b5499ab3aa7f59195fc"
    },
    "m_Name": "Property",
    "m_DrawState": {
        "m_Expanded": true,
        "m_Position": {
            "serializedVersion": "2",
            "x": -1026.0,
            "y": -47.000003814697269,
            "width": 286.0,
            "height": 34.0
        }
    },
    "m_Slots": [
        {
            "m_Id": "1813739a8ba0e08a865916ee6a36a391"
        }
    ],
    "synonyms": [],
    "m_Precision": 0,
    "m_PreviewExpanded": true,
    "m_PreviewMode": 0,
    "m_CustomColors": {
        "m_SerializableColors": []
    },
    "m_Property": {
        "m_Id": "b4a6a7eea80d918a80009c4d747e66f9"
    }
}

{
    "m_SGVersion": 0,
    "m_Type": "UnityEditor.ShaderGraph.Vector1MaterialSlot",
    "m_ObjectId": "50659e8fba60a4818e74f7b502cf3f1b",
    "m_Id": 4,
    "m_DisplayName": "Out_Occlusion",
    "m_SlotType": 1,
    "m_Hidden": false,
    "m_ShaderOutputName": "OutOcclusion",
    "m_StageCapability": 2,
    "m_Value": 0.0,
    "m_DefaultValue": 0.0,
    "m_Labels": [
        "X"
    ]
}

{
    "m_SGVersion": 1,
    "m_Type": "UnityEditor.ShaderGraph.Internal.Vector1ShaderProperty",
    "m_ObjectId": "50dc4f36615f498d963b38431d3a8fc0",
    "m_Guid": {
        "m_GuidSerialized": "3e4507e7-503b-4153-bd73-dec95ec0d41b"
    },
    "m_Name": "NormalScale",
    "m_DefaultReferenceName": "Vector1_35B7FC2D",
    "m_OverrideReferenceName": "_NormalScale",
    "m_GeneratePropertyBlock": true,
    "m_Precision": 0,
    "overrideHLSLDeclaration": false,
    "hlslDeclarationOverride": 0,
    "m_Hidden": false,
    "m_Value": 1.0,
    "m_FloatType": 0,
    "m_RangeValues": {
        "x": 0.0,
        "y": 1.0
    }
}

{
    "m_SGVersion": 0,
    "m_Type": "UnityEditor.ShaderGraph.PropertyNode",
    "m_ObjectId": "5511a2b89791b28ea7aaf4947ee16e14",
    "m_Group": {
        "m_Id": "73930a5c6faf4b5499ab3aa7f59195fc"
    },
    "m_Name": "Property",
    "m_DrawState": {
        "m_Expanded": true,
        "m_Position": {
            "serializedVersion": "2",
            "x": -832.0,
            "y": -190.0,
            "width": 132.0,
            "height": 34.0
        }
    },
    "m_Slots": [
        {
            "m_Id": "d7659762c112d08fbe333d1a3cb1f86f"
        }
    ],
    "synonyms": [],
    "m_Precision": 0,
    "m_PreviewExpanded": true,
    "m_PreviewMode": 0,
    "m_CustomColors": {
        "m_SerializableColors": []
    },
    "m_Property": {
        "m_Id": "02816270fff54d8d8d79d1d690c8c1bd"
    }
}

{
    "m_SGVersion": 0,
    "m_Type": "UnityEditor.ShaderGraph.Vector1MaterialSlot",
    "m_ObjectId": "5a0d8cc11bb7ff8498d6c0948fcf1577",
    "m_Id": 0,
    "m_DisplayName": "EdgeColorIntensity",
    "m_SlotType": 1,
    "m_Hidden": false,
    "m_ShaderOutputName": "Out",
    "m_StageCapability": 3,
    "m_Value": 0.0,
    "m_DefaultValue": 0.0,
    "m_Labels": [
        "X"
    ]
}

{
    "m_SGVersion": 0,
    "m_Type": "UnityEditor.ShaderGraph.PropertyNode",
    "m_ObjectId": "5a59dff55b325583819e732b7092ad87",
    "m_Group": {
        "m_Id": "a43d7bf05ba34235abeca3c6cfe9c2e3"
    },
    "m_Name": "Property",
    "m_DrawState": {
        "m_Expanded": true,
        "m_Position": {
            "serializedVersion": "2",
            "x": -1134.0,
            "y": 724.0,
            "width": 156.0,
            "height": 34.0
        }
    },
    "m_Slots": [
        {
            "m_Id": "03ffb1b9f2d90483bcafcd1853631732"
        }
    ],
    "synonyms": [],
    "m_Precision": 0,
    "m_PreviewExpanded": true,
    "m_PreviewMode": 0,
    "m_CustomColors": {
        "m_SerializableColors": []
    },
    "m_Property": {
        "m_Id": "e79c5ce0fdc3f58cb35a29cc2e258bd0"
    }
}

{
    "m_SGVersion": 0,
    "m_Type": "UnityEditor.ShaderGraph.PropertyNode",
    "m_ObjectId": "5c52857295bc82819c4cb29b13a8ca8e",
    "m_Group": {
        "m_Id": "a43d7bf05ba34235abeca3c6cfe9c2e3"
    },
    "m_Name": "Property",
    "m_DrawState": {
        "m_Expanded": true,
        "m_Position": {
            "serializedVersion": "2",
            "x": -437.0,
            "y": 440.0000305175781,
            "width": 134.0,
            "height": 34.0
        }
    },
    "m_Slots": [
        {
            "m_Id": "46f53afda0996487a883e7ef866aa201"
        }
    ],
    "synonyms": [],
    "m_Precision": 0,
    "m_PreviewExpanded": true,
    "m_PreviewMode": 0,
    "m_CustomColors": {
        "m_SerializableColors": []
    },
    "m_Property": {
        "m_Id": "de43d538ef39dc8e80eb84dc5de3b2d6"
    }
}

{
    "m_SGVersion": 0,
    "m_Type": "UnityEditor.ShaderGraph.PropertyNode",
    "m_ObjectId": "601f6c1f0dad8285944afb997d087bd3",
    "m_Group": {
        "m_Id": "a43d7bf05ba34235abeca3c6cfe9c2e3"
    },
    "m_Name": "Property",
    "m_DrawState": {
        "m_Expanded": true,
        "m_Position": {
            "serializedVersion": "2",
            "x": -634.0,
            "y": 465.0,
            "width": 187.0,
            "height": 34.0
        }
    },
    "m_Slots": [
        {
            "m_Id": "5a0d8cc11bb7ff8498d6c0948fcf1577"
        }
    ],
    "synonyms": [],
    "m_Precision": 0,
    "m_PreviewExpanded": true,
    "m_PreviewMode": 0,
    "m_CustomColors": {
        "m_SerializableColors": []
    },
    "m_Property": {
        "m_Id": "37524622a09a0785a3f64e731837e4d9"
    }
}

{
    "m_SGVersion": 0,
    "m_Type": "UnityEditor.ShaderGraph.Vector2MaterialSlot",
    "m_ObjectId": "6705b127c1e8d181951b3161aeb0a688",
    "m_Id": 0,
    "m_DisplayName": "Tiling",
    "m_SlotType": 1,
    "m_Hidden": false,
    "m_ShaderOutputName": "Out",
    "m_StageCapability": 3,
    "m_Value": {
        "x": 0.0,
        "y": 0.0
    },
    "m_DefaultValue": {
        "x": 0.0,
        "y": 0.0
    },
    "m_Labels": [
        "X",
        "Y"
    ]
}

{
    "m_SGVersion": 0,
    "m_Type": "UnityEditor.ShaderGraph.Vector1MaterialSlot",
    "m_ObjectId": "6738777a041bfb8e9313bae9043f2b7b",
    "m_Id": -178413271,
    "m_DisplayName": "ColorIntensity",
    "m_SlotType": 0,
    "m_Hidden": false,
    "m_ShaderOutputName": "Vector1_81CD89EF",
    "m_StageCapability": 3,
    "m_Value": 1.0,
    "m_DefaultValue": 0.0,
    "m_Labels": [
        "X"
    ]
}

{
    "m_SGVersion": 0,
    "m_Type": "UnityEditor.ShaderGraph.Vector2MaterialSlot",
    "m_ObjectId": "68a7ed8cdc40d68a9cc24e1cdb854679",
    "m_Id": 640949189,
    "m_DisplayName": "Offest",
    "m_SlotType": 0,
    "m_Hidden": false,
    "m_ShaderOutputName": "Vector2_D888B890",
    "m_StageCapability": 2,
    "m_Value": {
        "x": 0.0,
        "y": 0.0
    },
    "m_DefaultValue": {
        "x": 0.0,
        "y": 0.0
    },
    "m_Labels": [
        "X",
        "Y"
    ]
}

{
    "m_SGVersion": 0,
    "m_Type": "UnityEditor.ShaderGraph.Texture2DMaterialSlot",
    "m_ObjectId": "6d90c59fdfba0a8987a58c61f85338a4",
    "m_Id": 0,
    "m_DisplayName": "NormalMap",
    "m_SlotType": 1,
    "m_Hidden": false,
    "m_ShaderOutputName": "Out",
    "m_StageCapability": 3,
    "m_BareResource": false
}

{
    "m_SGVersion": 0,
    "m_Type": "UnityEditor.ShaderGraph.SubGraphNode",
    "m_ObjectId": "6d96e5be04d35281a82c1ca2ea8df076",
    "m_Group": {
        "m_Id": "a43d7bf05ba34235abeca3c6cfe9c2e3"
    },
    "m_Name": "UVSpeed Sub Graph",
    "m_DrawState": {
        "m_Expanded": true,
        "m_Position": {
            "serializedVersion": "2",
            "x": -917.0,
            "y": 555.0,
            "width": 247.0,
            "height": 302.0
        }
    },
    "m_Slots": [
        {
            "m_Id": "14ad2a29547a48e498448ee004bcb555"
        },
        {
            "m_Id": "16418b633bf37b8aa2a422811a31bae0"
        },
        {
            "m_Id": "1e348d0ddccd2482822da6e83f34b933"
        }
    ],
    "synonyms": [],
    "m_Precision": 0,
    "m_PreviewExpanded": true,
    "m_PreviewMode": 0,
    "m_CustomColors": {
        "m_SerializableColors": []
    },
    "m_SerializedSubGraph": "{\n    \"subGraph\": {\n        \"fileID\": -5475051401550479605,\n        \"guid\": \"def9eec6cf357af49912da05ed016fe3\",\n        \"type\": 3\n    }\n}",
    "m_PropertyGuids": [
        "888c7fff-e30f-4775-8295-34fd15723bca",
        "245c111c-3a93-4da1-bcf1-4dc043aa2936"
    ],
    "m_PropertyIds": [
        1602435136,
        1406098571
    ]
}

{
    "m_SGVersion": 0,
    "m_Type": "UnityEditor.ShaderGraph.BlockNode",
    "m_ObjectId": "71404769a02947618cd34a7c31af5451",
    "m_Group": {
        "m_Id": ""
    },
    "m_Name": "SurfaceDescription.Occlusion",
    "m_DrawState": {
        "m_Expanded": true,
        "m_Position": {
            "serializedVersion": "2",
            "x": 0.0,
            "y": 0.0,
            "width": 0.0,
            "height": 0.0
        }
    },
    "m_Slots": [
        {
            "m_Id": "de4663d2e1214255aa9e34d6df55bea2"
        }
    ],
    "synonyms": [],
    "m_Precision": 0,
    "m_PreviewExpanded": true,
    "m_PreviewMode": 0,
    "m_CustomColors": {
        "m_SerializableColors": []
    },
    "m_SerializedDescriptor": "SurfaceDescription.Occlusion"
}

{
    "m_SGVersion": 0,
    "m_Type": "UnityEditor.ShaderGraph.SubGraphNode",
    "m_ObjectId": "7149518dcec1a28387634eabbffb7598",
    "m_Group": {
        "m_Id": "73930a5c6faf4b5499ab3aa7f59195fc"
    },
    "m_Name": "PBR_Metallic Sub Graph",
    "m_DrawState": {
        "m_Expanded": true,
        "m_Position": {
            "serializedVersion": "2",
            "x": -442.0,
            "y": -231.0,
            "width": 430.0,
            "height": 446.0
        }
    },
    "m_Slots": [
        {
            "m_Id": "425fd83e81571981ba737940a9c710a7"
        },
        {
            "m_Id": "cadde06df17c8a80a6307da095eba5a8"
        },
        {
            "m_Id": "71dfc2d0f5ad1e8eba58446b36fa49e0"
        },
        {
            "m_Id": "c0432dd0cce9598bb9465102494a0c5e"
        },
        {
            "m_Id": "f5ff6cc6d05a2f8597eca924b0afde24"
        },
        {
            "m_Id": "68a7ed8cdc40d68a9cc24e1cdb854679"
        },
        {
            "m_Id": "a0321d9c3db79f8c89b9e25a8f9e3bd0"
        },
        {
            "m_Id": "f173de1712c7b885ae73cd2cd17c6bbe"
        },
        {
            "m_Id": "9d257222cc114488a709a4cd704ef6be"
        },
        {
            "m_Id": "94257616703655879d7986f63e5a2767"
        },
        {
            "m_Id": "9ed50f0c2e30e187ad52d265f672f65a"
        },
        {
            "m_Id": "0a46b14a5080178b84aee1fc75ec7d9e"
        },
        {
            "m_Id": "32dfa491f88fc98187eb010a8790d286"
        },
        {
            "m_Id": "9b4b2b0eb1fc4b89a6b2cbe92dc98bbf"
        },
        {
            "m_Id": "50659e8fba60a4818e74f7b502cf3f1b"
        }
    ],
    "synonyms": [],
    "m_Precision": 0,
    "m_PreviewExpanded": true,
    "m_PreviewMode": 0,
    "m_CustomColors": {
        "m_SerializableColors": []
    },
    "m_SerializedSubGraph": "{\n    \"subGraph\": {\n        \"fileID\": -5475051401550479605,\n        \"guid\": \"c3e2a18295de6ab49a927e0a79be53aa\",\n        \"type\": 3\n    }\n}",
    "m_PropertyGuids": [
        "89d0050b-25a1-4002-a0ab-63f81833c2e0",
        "25b86299-0be2-49ec-9735-fcf68109e7ca",
        "9ffeff70-1685-498a-9ab4-0350d119ae70",
        "661daa4c-cc88-4f11-a216-5463d6f8da2a",
        "4a3e51b7-9b0a-4a99-8e13-f74a8a4604eb",
        "33218b83-7547-43c5-ac30-f0c061c3d9ec",
        "c44b2d93-6415-4de1-84cd-23a28b6bec8a",
        "1ac57f91-10f2-4655-8d05-d374d9b8b926",
        "c91d63a3-d4ac-4ac1-85d3-8092a24dc22d",
        "7a6f789d-5374-449c-85a5-b5efc98956bd"
    ],
    "m_PropertyIds": [
        -814660119,
        -765842497,
        -1971603830,
        -23730825,
        640949189,
        -1234777942,
        -2090966792,
        -650692126,
        -1649333937,
        -1675936580
    ]
}

{
    "m_SGVersion": 0,
    "m_Type": "UnityEditor.ShaderGraph.Texture2DInputMaterialSlot",
    "m_ObjectId": "71dfc2d0f5ad1e8eba58446b36fa49e0",
    "m_Id": -765842497,
    "m_DisplayName": "NormalMap",
    "m_SlotType": 0,
    "m_Hidden": false,
    "m_ShaderOutputName": "Texture2D_31BC5372",
    "m_StageCapability": 2,
    "m_BareResource": false,
    "m_Texture": {
        "m_SerializedTexture": "{\"texture\":{\"instanceID\":0}}",
        "m_Guid": ""
    },
    "m_DefaultType": 0
}

{
    "m_SGVersion": 0,
    "m_Type": "UnityEditor.ShaderGraph.BlockNode",
    "m_ObjectId": "738898d1a3374844a0c29c090b0a230d",
    "m_Group": {
        "m_Id": ""
    },
    "m_Name": "VertexDescription.Tangent",
    "m_DrawState": {
        "m_Expanded": true,
        "m_Position": {
            "serializedVersion": "2",
            "x": 0.0,
            "y": 0.0,
            "width": 0.0,
            "height": 0.0
        }
    },
    "m_Slots": [
        {
            "m_Id": "e0958bf66aac4e699f3f24a586e602f0"
        }
    ],
    "synonyms": [],
    "m_Precision": 0,
    "m_PreviewExpanded": true,
    "m_PreviewMode": 0,
    "m_CustomColors": {
        "m_SerializableColors": []
    },
    "m_SerializedDescriptor": "VertexDescription.Tangent"
}

{
    "m_SGVersion": 0,
    "m_Type": "UnityEditor.ShaderGraph.GroupData",
    "m_ObjectId": "73930a5c6faf4b5499ab3aa7f59195fc",
    "m_Title": "PBR Output",
    "m_Position": {
        "x": 10.0,
        "y": 10.0
    }
}

{
    "m_SGVersion": 0,
    "m_Type": "UnityEditor.ShaderGraph.BlockNode",
    "m_ObjectId": "77004c944ee04a058c143902663c3a7a",
    "m_Group": {
        "m_Id": ""
    },
    "m_Name": "SurfaceDescription.AlphaClipThreshold",
    "m_DrawState": {
        "m_Expanded": true,
        "m_Position": {
            "serializedVersion": "2",
            "x": 0.0,
            "y": 0.0,
            "width": 0.0,
            "height": 0.0
        }
    },
    "m_Slots": [
        {
            "m_Id": "380c057de9fd4047b1e3d0fe315c843e"
        }
    ],
    "synonyms": [],
    "m_Precision": 0,
    "m_PreviewExpanded": true,
    "m_PreviewMode": 0,
    "m_CustomColors": {
        "m_SerializableColors": []
    },
    "m_SerializedDescriptor": "SurfaceDescription.AlphaClipThreshold"
}

{
    "m_SGVersion": 0,
    "m_Type": "UnityEditor.ShaderGraph.Vector1MaterialSlot",
    "m_ObjectId": "7793efcbc7ea43f095a148b9364b4668",
    "m_Id": 0,
    "m_DisplayName": "Smoothness",
    "m_SlotType": 0,
    "m_Hidden": false,
    "m_ShaderOutputName": "Smoothness",
    "m_StageCapability": 2,
    "m_Value": 0.5,
    "m_DefaultValue": 0.5,
    "m_Labels": []
}

{
    "m_SGVersion": 0,
    "m_Type": "UnityEditor.ShaderGraph.PropertyNode",
    "m_ObjectId": "7c979e3c01b7a08c9bafb746f21d8edc",
    "m_Group": {
        "m_Id": "73930a5c6faf4b5499ab3aa7f59195fc"
    },
    "m_Name": "Property",
    "m_DrawState": {
        "m_Expanded": true,
        "m_Position": {
            "serializedVersion": "2",
            "x": -668.0,
            "y": -23.000009536743165,
            "width": 117.0,
            "height": 34.0
        }
    },
    "m_Slots": [
        {
            "m_Id": "f7586a74a49b7789b48691a28c87de7a"
        }
    ],
    "synonyms": [],
    "m_Precision": 0,
    "m_PreviewExpanded": true,
    "m_PreviewMode": 0,
    "m_CustomColors": {
        "m_SerializableColors": []
    },
    "m_Property": {
        "m_Id": "eaeb04a10e589689b98b59dfeaf08cc5"
    }
}

{
    "m_SGVersion": 0,
    "m_Type": "UnityEditor.ShaderGraph.Vector1MaterialSlot",
    "m_ObjectId": "7e0bbbd11f448f88ad923b09359cacaa",
    "m_Id": 0,
    "m_DisplayName": "Smoothness",
    "m_SlotType": 1,
    "m_Hidden": false,
    "m_ShaderOutputName": "Out",
    "m_StageCapability": 3,
    "m_Value": 0.0,
    "m_DefaultValue": 0.0,
    "m_Labels": [
        "X"
    ]
}

{
    "m_SGVersion": 0,
    "m_Type": "UnityEditor.ShaderGraph.NoiseNode",
    "m_ObjectId": "7f7d5f5ddc900b8a9c082103e08a47c0",
    "m_Group": {
        "m_Id": "a43d7bf05ba34235abeca3c6cfe9c2e3"
    },
    "m_Name": "Simple Noise",
    "m_DrawState": {
        "m_Expanded": true,
        "m_Position": {
            "serializedVersion": "2",
            "x": -516.0,
            "y": 511.0000305175781,
            "width": 208.0,
            "height": 302.0
        }
    },
    "m_Slots": [
        {
            "m_Id": "c5d181b5cfcaf9898a0b5f35964f18c6"
        },
        {
            "m_Id": "bb794cb526c77680af55076489466caf"
        },
        {
            "m_Id": "eac17e714e437689b432c1903e1a9b43"
        }
    ],
    "synonyms": [],
    "m_Precision": 0,
    "m_PreviewExpanded": true,
    "m_PreviewMode": 0,
    "m_CustomColors": {
        "m_SerializableColors": []
    }
}

{
    "m_SGVersion": 0,
    "m_Type": "UnityEditor.ShaderGraph.Vector1MaterialSlot",
    "m_ObjectId": "804e48bc114c8d84ad4bea7e8222c70a",
    "m_Id": 0,
    "m_DisplayName": "NormalScale",
    "m_SlotType": 1,
    "m_Hidden": false,
    "m_ShaderOutputName": "Out",
    "m_StageCapability": 3,
    "m_Value": 0.0,
    "m_DefaultValue": 0.0,
    "m_Labels": [
        "X"
    ]
}

{
    "m_SGVersion": 0,
    "m_Type": "UnityEditor.ShaderGraph.PropertyNode",
    "m_ObjectId": "82717f872281a48bac8e76cf8df81977",
    "m_Group": {
        "m_Id": "73930a5c6faf4b5499ab3aa7f59195fc"
    },
    "m_Name": "Property",
    "m_DrawState": {
        "m_Expanded": true,
        "m_Position": {
            "serializedVersion": "2",
            "x": -704.0,
            "y": -71.0,
            "width": 110.0,
            "height": 34.0
        }
    },
    "m_Slots": [
        {
            "m_Id": "3d0653d9b5e0f5809038f77295b88e13"
        }
    ],
    "synonyms": [],
    "m_Precision": 0,
    "m_PreviewExpanded": true,
    "m_PreviewMode": 0,
    "m_CustomColors": {
        "m_SerializableColors": []
    },
    "m_Property": {
        "m_Id": "a77ad572d06f20828aaea6819f51ba20"
    }
}

{
    "m_SGVersion": 0,
    "m_Type": "UnityEditor.ShaderGraph.Vector4MaterialSlot",
    "m_ObjectId": "8524e21beada9c81b812bf5ae6b998ae",
    "m_Id": 1,
    "m_DisplayName": "Out_EdgeColor",
    "m_SlotType": 1,
    "m_Hidden": false,
    "m_ShaderOutputName": "OutEdgeColor",
    "m_StageCapability": 3,
    "m_Value": {
        "x": 0.0,
        "y": 0.0,
        "z": 0.0,
        "w": 0.0
    },
    "m_DefaultValue": {
        "x": 0.0,
        "y": 0.0,
        "z": 0.0,
        "w": 0.0
    },
    "m_Labels": []
}

{
    "m_SGVersion": 0,
    "m_Type": "UnityEditor.ShaderGraph.Vector1MaterialSlot",
    "m_ObjectId": "93a113316ca61682828eac3ed657c7e8",
    "m_Id": 1404324792,
    "m_DisplayName": "Dissolve",
    "m_SlotType": 0,
    "m_Hidden": false,
    "m_ShaderOutputName": "Vector1_69DBF2ED",
    "m_StageCapability": 3,
    "m_Value": 0.0,
    "m_DefaultValue": 0.0,
    "m_Labels": [
        "X"
    ]
}

{
    "m_SGVersion": 0,
    "m_Type": "UnityEditor.ShaderGraph.Vector1MaterialSlot",
    "m_ObjectId": "94257616703655879d7986f63e5a2767",
    "m_Id": -2090966792,
    "m_DisplayName": "Smoothness",
    "m_SlotType": 0,
    "m_Hidden": false,
    "m_ShaderOutputName": "Vector1_75CD6DF1",
    "m_StageCapability": 2,
    "m_Value": 0.0,
    "m_DefaultValue": 0.0,
    "m_Labels": [
        "X"
    ]
}

{
    "m_SGVersion": 0,
    "m_Type": "UnityEditor.Rendering.Universal.ShaderGraph.UniversalLitSubTarget",
    "m_ObjectId": "97fdf55cff024ce89603170266df6cc3",
    "m_WorkflowMode": 1,
    "m_NormalDropOffSpace": 0,
    "m_ClearCoat": false
}

{
    "m_SGVersion": 0,
    "m_Type": "UnityEditor.ShaderGraph.Vector1MaterialSlot",
    "m_ObjectId": "9b4b2b0eb1fc4b89a6b2cbe92dc98bbf",
    "m_Id": 5,
    "m_DisplayName": "Out_Smoothness",
    "m_SlotType": 1,
    "m_Hidden": false,
    "m_ShaderOutputName": "OutSmoothness",
    "m_StageCapability": 2,
    "m_Value": 0.0,
    "m_DefaultValue": 0.0,
    "m_Labels": [
        "X"
    ]
}

{
    "m_SGVersion": 0,
    "m_Type": "UnityEditor.ShaderGraph.Vector1MaterialSlot",
    "m_ObjectId": "9d257222cc114488a709a4cd704ef6be",
    "m_Id": -650692126,
    "m_DisplayName": "OcclusionStrength",
    "m_SlotType": 0,
    "m_Hidden": false,
    "m_ShaderOutputName": "Vector1_A88E4ECE",
    "m_StageCapability": 2,
    "m_Value": 0.0,
    "m_DefaultValue": 0.0,
    "m_Labels": [
        "X"
    ]
}

{
    "m_SGVersion": 0,
    "m_Type": "UnityEditor.ShaderGraph.Vector3MaterialSlot",
    "m_ObjectId": "9ed50f0c2e30e187ad52d265f672f65a",
    "m_Id": 1,
    "m_DisplayName": "Out_Albedo",
    "m_SlotType": 1,
    "m_Hidden": false,
    "m_ShaderOutputName": "OutAlbedo",
    "m_StageCapability": 2,
    "m_Value": {
        "x": 0.0,
        "y": 0.0,
        "z": 0.0
    },
    "m_DefaultValue": {
        "x": 0.0,
        "y": 0.0,
        "z": 0.0
    },
    "m_Labels": [
        "X",
        "Y",
        "Z"
    ]
}

{
    "m_SGVersion": 1,
    "m_Type": "UnityEditor.ShaderGraph.Internal.Vector1ShaderProperty",
    "m_ObjectId": "9fefc73e64bc128dba0eca088390b9dd",
    "m_Guid": {
        "m_GuidSerialized": "66ef92e3-f3c1-47bf-accb-585c7ed80314"
    },
    "m_Name": "EdgeWidth",
    "m_DefaultReferenceName": "Vector1_CE3F4A11",
    "m_OverrideReferenceName": "_EdgeWidth",
    "m_GeneratePropertyBlock": true,
    "m_Precision": 0,
    "overrideHLSLDeclaration": false,
    "hlslDeclarationOverride": 0,
    "m_Hidden": false,
    "m_Value": 0.05000000074505806,
    "m_FloatType": 1,
    "m_RangeValues": {
        "x": 0.0,
        "y": 1.0
    }
}

{
    "m_SGVersion": 0,
    "m_Type": "UnityEditor.ShaderGraph.Texture2DInputMaterialSlot",
    "m_ObjectId": "a0321d9c3db79f8c89b9e25a8f9e3bd0",
    "m_Id": -1234777942,
    "m_DisplayName": "R_Metallic,G_Occulsion,A_Smoothness",
    "m_SlotType": 0,
    "m_Hidden": false,
    "m_ShaderOutputName": "Texture2D_244001D7",
    "m_StageCapability": 2,
    "m_BareResource": false,
    "m_Texture": {
        "m_SerializedTexture": "{\"texture\":{\"instanceID\":0}}",
        "m_Guid": ""
    },
    "m_DefaultType": 0
}

{
    "m_SGVersion": 0,
    "m_Type": "UnityEditor.ShaderGraph.GroupData",
    "m_ObjectId": "a43d7bf05ba34235abeca3c6cfe9c2e3",
    "m_Title": "Dissolve Output",
    "m_Position": {
        "x": -908.0,
        "y": 293.0
    }
}

{
    "m_SGVersion": 0,
    "m_Type": "UnityEditor.ShaderGraph.BlockNode",
    "m_ObjectId": "a5e0bb6b78854eaa932607aa1b2f3c5b",
    "m_Group": {
        "m_Id": ""
    },
    "m_Name": "SurfaceDescription.NormalTS",
    "m_DrawState": {
        "m_Expanded": true,
        "m_Position": {
            "serializedVersion": "2",
            "x": 0.0,
            "y": 0.0,
            "width": 0.0,
            "height": 0.0
        }
    },
    "m_Slots": [
        {
            "m_Id": "bb5fb48dea3d41729f952a0a076b4bb7"
        }
    ],
    "synonyms": [],
    "m_Precision": 0,
    "m_PreviewExpanded": true,
    "m_PreviewMode": 0,
    "m_CustomColors": {
        "m_SerializableColors": []
    },
    "m_SerializedDescriptor": "SurfaceDescription.NormalTS"
}

{
    "m_SGVersion": 1,
    "m_Type": "UnityEditor.ShaderGraph.Internal.Vector2ShaderProperty",
    "m_ObjectId": "a77ad572d06f20828aaea6819f51ba20",
    "m_Guid": {
        "m_GuidSerialized": "2af65f87-85e3-4e56-be17-ad3ddbf40fae"
    },
    "m_Name": "Offest",
    "m_DefaultReferenceName": "Vector2_9550FCB7",
    "m_OverrideReferenceName": "_Offest",
    "m_GeneratePropertyBlock": true,
    "m_Precision": 0,
    "overrideHLSLDeclaration": false,
    "hlslDeclarationOverride": 0,
    "m_Hidden": false,
    "m_Value": {
        "x": 0.0,
        "y": 0.0,
        "z": 0.0,
        "w": 0.0
    }
}

{
    "m_SGVersion": 1,
    "m_Type": "UnityEditor.ShaderGraph.Internal.Vector1ShaderProperty",
    "m_ObjectId": "ae69cb90b642058994bb6d8bbdca78ca",
    "m_Guid": {
        "m_GuidSerialized": "7454aa97-a329-4843-ba1f-3cd0d42e3824"
    },
    "m_Name": "OcclusionStrength",
    "m_DefaultReferenceName": "Vector1_FB61DAF5",
    "m_OverrideReferenceName": "_OcclusionStrength",
    "m_GeneratePropertyBlock": true,
    "m_Precision": 0,
    "overrideHLSLDeclaration": false,
    "hlslDeclarationOverride": 0,
    "m_Hidden": false,
    "m_Value": 1.0,
    "m_FloatType": 1,
    "m_RangeValues": {
        "x": 0.0,
        "y": 1.0
    }
}

{
    "m_SGVersion": 0,
    "m_Type": "UnityEditor.ShaderGraph.PropertyNode",
    "m_ObjectId": "b2e7ede9d61c418a8617621ffd31aef9",
    "m_Group": {
        "m_Id": "73930a5c6faf4b5499ab3aa7f59195fc"
    },
    "m_Name": "Property",
    "m_DrawState": {
        "m_Expanded": true,
        "m_Position": {
            "serializedVersion": "2",
            "x": -855.0000610351563,
            "y": -142.99998474121095,
            "width": 146.0,
            "height": 34.0
        }
    },
    "m_Slots": [
        {
            "m_Id": "6d90c59fdfba0a8987a58c61f85338a4"
        }
    ],
    "synonyms": [],
    "m_Precision": 0,
    "m_PreviewExpanded": true,
    "m_PreviewMode": 0,
    "m_CustomColors": {
        "m_SerializableColors": []
    },
    "m_Property": {
        "m_Id": "b9e11bcd608f1d8ba600271e57900288"
    }
}

{
    "m_SGVersion": 0,
    "m_Type": "UnityEditor.ShaderGraph.Vector1MaterialSlot",
    "m_ObjectId": "b4841cebc5c0a581906c68a244e3a2b5",
    "m_Id": 0,
    "m_DisplayName": "OcclusionStrength",
    "m_SlotType": 1,
    "m_Hidden": false,
    "m_ShaderOutputName": "Out",
    "m_StageCapability": 3,
    "m_Value": 0.0,
    "m_DefaultValue": 0.0,
    "m_Labels": [
        "X"
    ]
}

{
    "m_SGVersion": 0,
    "m_Type": "UnityEditor.ShaderGraph.Internal.Texture2DShaderProperty",
    "m_ObjectId": "b4a6a7eea80d918a80009c4d747e66f9",
    "m_Guid": {
        "m_GuidSerialized": "dd02e5dc-5fc7-4add-bbfe-fe9e7a72b2b9"
    },
    "m_Name": "R_Metallic,G_Occulsion,A_Smoothness",
    "m_DefaultReferenceName": "Texture2D_B8A7FDE7",
    "m_OverrideReferenceName": "_R_Metallic_G_Occulsion_A_Smoothness",
    "m_GeneratePropertyBlock": true,
    "m_Precision": 0,
    "overrideHLSLDeclaration": false,
    "hlslDeclarationOverride": 0,
    "m_Hidden": false,
    "m_Value": {
        "m_SerializedTexture": "{\"texture\":{\"instanceID\":0}}",
        "m_Guid": ""
    },
    "m_Modifiable": true,
    "m_DefaultType": 0
}

{
    "m_SGVersion": 0,
    "m_Type": "UnityEditor.ShaderGraph.UVNode",
    "m_ObjectId": "b6b59fd6ebdf5083bab6fe902cd0f5eb",
    "m_Group": {
        "m_Id": "a43d7bf05ba34235abeca3c6cfe9c2e3"
    },
    "m_Name": "UV",
    "m_DrawState": {
        "m_Expanded": true,
        "m_Position": {
            "serializedVersion": "2",
            "x": -1349.0,
            "y": 554.0,
            "width": 208.0,
            "height": 314.0
        }
    },
    "m_Slots": [
        {
            "m_Id": "11382c0b77af3a81a28f5eaef1fcc740"
        }
    ],
    "synonyms": [],
    "m_Precision": 0,
    "m_PreviewExpanded": true,
    "m_PreviewMode": 0,
    "m_CustomColors": {
        "m_SerializableColors": []
    },
    "m_OutputChannel": 0
}

{
    "m_SGVersion": 0,
    "m_Type": "UnityEditor.ShaderGraph.Internal.Texture2DShaderProperty",
    "m_ObjectId": "b9e11bcd608f1d8ba600271e57900288",
    "m_Guid": {
        "m_GuidSerialized": "9e52bdae-7f26-4e68-a116-638f8340941c"
    },
    "m_Name": "NormalMap",
    "m_DefaultReferenceName": "Texture2D_7F6F6A34",
    "m_OverrideReferenceName": "_NormalMap",
    "m_GeneratePropertyBlock": true,
    "m_Precision": 0,
    "overrideHLSLDeclaration": false,
    "hlslDeclarationOverride": 0,
    "m_Hidden": false,
    "m_Value": {
        "m_SerializedTexture": "{\"texture\":{\"instanceID\":0}}",
        "m_Guid": ""
    },
    "m_Modifiable": true,
    "m_DefaultType": 3
}

{
    "m_SGVersion": 0,
    "m_Type": "UnityEditor.ShaderGraph.BlockNode",
    "m_ObjectId": "ba06d07bea0d4eb893e11b380248eab7",
    "m_Group": {
        "m_Id": ""
    },
    "m_Name": "SurfaceDescription.BaseColor",
    "m_DrawState": {
        "m_Expanded": true,
        "m_Position": {
            "serializedVersion": "2",
            "x": 0.0,
            "y": 0.0,
            "width": 0.0,
            "height": 0.0
        }
    },
    "m_Slots": [
        {
            "m_Id": "f613b97177e642299face32b1047b11e"
        }
    ],
    "synonyms": [],
    "m_Precision": 0,
    "m_PreviewExpanded": true,
    "m_PreviewMode": 0,
    "m_CustomColors": {
        "m_SerializableColors": []
    },
    "m_SerializedDescriptor": "SurfaceDescription.BaseColor"
}

{
    "m_SGVersion": 0,
    "m_Type": "UnityEditor.ShaderGraph.NormalMaterialSlot",
    "m_ObjectId": "bb5fb48dea3d41729f952a0a076b4bb7",
    "m_Id": 0,
    "m_DisplayName": "Normal (Tangent Space)",
    "m_SlotType": 0,
    "m_Hidden": false,
    "m_ShaderOutputName": "NormalTS",
    "m_StageCapability": 2,
    "m_Value": {
        "x": 0.0,
        "y": 0.0,
        "z": 0.0
    },
    "m_DefaultValue": {
        "x": 0.0,
        "y": 0.0,
        "z": 0.0
    },
    "m_Labels": [],
    "m_Space": 3
}

{
    "m_SGVersion": 0,
    "m_Type": "UnityEditor.ShaderGraph.Vector1MaterialSlot",
    "m_ObjectId": "bb794cb526c77680af55076489466caf",
    "m_Id": 1,
    "m_DisplayName": "Scale",
    "m_SlotType": 0,
    "m_Hidden": false,
    "m_ShaderOutputName": "Scale",
    "m_StageCapability": 3,
    "m_Value": 500.0,
    "m_DefaultValue": 500.0,
    "m_Labels": [
        "X"
    ]
}

{
    "m_SGVersion": 0,
    "m_Type": "UnityEditor.ShaderGraph.PropertyNode",
    "m_ObjectId": "bfdf984dde1b698ab99cbf57aed7dad3",
    "m_Group": {
        "m_Id": "73930a5c6faf4b5499ab3aa7f59195fc"
    },
    "m_Name": "Property",
    "m_DrawState": {
        "m_Expanded": true,
        "m_Position": {
            "serializedVersion": "2",
            "x": -681.0,
            "y": -166.99998474121095,
            "width": 133.0,
            "height": 34.0
        }
    },
    "m_Slots": [
        {
            "m_Id": "2d36af7846a3cb88be0bdc08766242ac"
        }
    ],
    "synonyms": [],
    "m_Precision": 0,
    "m_PreviewExpanded": true,
    "m_PreviewMode": 0,
    "m_CustomColors": {
        "m_SerializableColors": []
    },
    "m_Property": {
        "m_Id": "c0de84001f1c7189a416c01bb231f4a7"
    }
}

{
    "m_SGVersion": 0,
    "m_Type": "UnityEditor.ShaderGraph.Vector1MaterialSlot",
    "m_ObjectId": "c0432dd0cce9598bb9465102494a0c5e",
    "m_Id": -1971603830,
    "m_DisplayName": "NormalScale",
    "m_SlotType": 0,
    "m_Hidden": false,
    "m_ShaderOutputName": "Vector1_5B1B16DB",
    "m_StageCapability": 2,
    "m_Value": 0.0,
    "m_DefaultValue": 0.0,
    "m_Labels": [
        "X"
    ]
}

{
    "m_SGVersion": 0,
    "m_Type": "UnityEditor.ShaderGraph.Internal.Texture2DShaderProperty",
    "m_ObjectId": "c0de84001f1c7189a416c01bb231f4a7",
    "m_Guid": {
        "m_GuidSerialized": "ff848836-157b-46f4-a553-bcc49a4f81bf"
    },
    "m_Name": "BaseMap",
    "m_DefaultReferenceName": "Texture2D_BE3AAB3E",
    "m_OverrideReferenceName": "_BaseMap",
    "m_GeneratePropertyBlock": true,
    "m_Precision": 0,
    "overrideHLSLDeclaration": false,
    "hlslDeclarationOverride": 0,
    "m_Hidden": false,
    "m_Value": {
        "m_SerializedTexture": "{\"texture\":{\"instanceID\":0}}",
        "m_Guid": ""
    },
    "m_Modifiable": true,
    "m_DefaultType": 0
}

{
    "m_SGVersion": 0,
    "m_Type": "UnityEditor.ShaderGraph.UVMaterialSlot",
    "m_ObjectId": "c5d181b5cfcaf9898a0b5f35964f18c6",
    "m_Id": 0,
    "m_DisplayName": "UV",
    "m_SlotType": 0,
    "m_Hidden": false,
    "m_ShaderOutputName": "UV",
    "m_StageCapability": 3,
    "m_Value": {
        "x": 0.0,
        "y": 0.0
    },
    "m_DefaultValue": {
        "x": 0.0,
        "y": 0.0
    },
    "m_Labels": [
        "X",
        "Y"
    ],
    "m_Channel": 0
}

{
    "m_SGVersion": 1,
    "m_Type": "UnityEditor.ShaderGraph.Internal.Vector1ShaderProperty",
    "m_ObjectId": "c778e3accb168a84bcb9704acac6016f",
    "m_Guid": {
        "m_GuidSerialized": "0ba8477e-39a9-4157-a13c-d13943270ac3"
    },
    "m_Name": "NoiseScale",
    "m_DefaultReferenceName": "Vector1_52FEE9AF",
    "m_OverrideReferenceName": "_NoiseScale",
    "m_GeneratePropertyBlock": true,
    "m_Precision": 0,
    "overrideHLSLDeclaration": false,
    "hlslDeclarationOverride": 0,
    "m_Hidden": false,
    "m_Value": 50.0,
    "m_FloatType": 0,
    "m_RangeValues": {
        "x": 0.0,
        "y": 1.0
    }
}

{
    "m_SGVersion": 0,
    "m_Type": "UnityEditor.ShaderGraph.Texture2DInputMaterialSlot",
    "m_ObjectId": "cadde06df17c8a80a6307da095eba5a8",
    "m_Id": -814660119,
    "m_DisplayName": "BaseMap",
    "m_SlotType": 0,
    "m_Hidden": false,
    "m_ShaderOutputName": "Texture2D_E1E878EA",
    "m_StageCapability": 2,
    "m_BareResource": false,
    "m_Texture": {
        "m_SerializedTexture": "{\"texture\":{\"instanceID\":0}}",
        "m_Guid": ""
    },
    "m_DefaultType": 0
}

{
    "m_SGVersion": 0,
    "m_Type": "UnityEditor.ShaderGraph.Vector1MaterialSlot",
    "m_ObjectId": "cc8f3893bd7dd582a3d9eb5cda2b4079",
    "m_Id": 1087423348,
    "m_DisplayName": "EdgeWidth",
    "m_SlotType": 0,
    "m_Hidden": false,
    "m_ShaderOutputName": "Vector1_25078113",
    "m_StageCapability": 3,
    "m_Value": 0.0,
    "m_DefaultValue": 0.0,
    "m_Labels": [
        "X"
    ]
}

{
    "m_SGVersion": 0,
    "m_Type": "UnityEditor.ShaderGraph.BlockNode",
    "m_ObjectId": "cf3a2ed6b7204f2b889f51fd6817b4b1",
    "m_Group": {
        "m_Id": ""
    },
    "m_Name": "VertexDescription.Normal",
    "m_DrawState": {
        "m_Expanded": true,
        "m_Position": {
            "serializedVersion": "2",
            "x": 0.0,
            "y": 0.0,
            "width": 0.0,
            "height": 0.0
        }
    },
    "m_Slots": [
        {
            "m_Id": "1c34d0bd0183444c8b9fadb371e10c79"
        }
    ],
    "synonyms": [],
    "m_Precision": 0,
    "m_PreviewExpanded": true,
    "m_PreviewMode": 0,
    "m_CustomColors": {
        "m_SerializableColors": []
    },
    "m_SerializedDescriptor": "VertexDescription.Normal"
}

{
    "m_SGVersion": 0,
    "m_Type": "UnityEditor.ShaderGraph.BlockNode",
    "m_ObjectId": "d10655d02e22486282baf9d493f34dee",
    "m_Group": {
        "m_Id": ""
    },
    "m_Name": "SurfaceDescription.Alpha",
    "m_DrawState": {
        "m_Expanded": true,
        "m_Position": {
            "serializedVersion": "2",
            "x": 0.0,
            "y": 0.0,
            "width": 0.0,
            "height": 0.0
        }
    },
    "m_Slots": [
        {
            "m_Id": "27352306ea874ec0aa14254cc5fcac04"
        }
    ],
    "synonyms": [],
    "m_Precision": 0,
    "m_PreviewExpanded": true,
    "m_PreviewMode": 0,
    "m_CustomColors": {
        "m_SerializableColors": []
    },
    "m_SerializedDescriptor": "SurfaceDescription.Alpha"
}

{
    "m_SGVersion": 0,
    "m_Type": "UnityEditor.ShaderGraph.Vector4MaterialSlot",
    "m_ObjectId": "d7659762c112d08fbe333d1a3cb1f86f",
    "m_Id": 0,
    "m_DisplayName": "BaseColor",
    "m_SlotType": 1,
    "m_Hidden": false,
    "m_ShaderOutputName": "Out",
    "m_StageCapability": 3,
    "m_Value": {
        "x": 0.0,
        "y": 0.0,
        "z": 0.0,
        "w": 0.0
    },
    "m_DefaultValue": {
        "x": 0.0,
        "y": 0.0,
        "z": 0.0,
        "w": 0.0
    },
    "m_Labels": []
}

{
    "m_SGVersion": 0,
    "m_Type": "UnityEditor.Rendering.Universal.ShaderGraph.UniversalTarget",
    "m_ObjectId": "d7cdefb281244060b573ccc7c0750a79",
    "m_ActiveSubTarget": {
        "m_Id": "97fdf55cff024ce89603170266df6cc3"
    },
    "m_SurfaceType": 0,
    "m_AlphaMode": 0,
    "m_TwoSided": false,
    "m_AlphaClip": true,
    "m_CustomEditorGUI": ""
}

{
    "m_SGVersion": 0,
    "m_Type": "UnityEditor.ShaderGraph.Vector4MaterialSlot",
    "m_ObjectId": "d8042a08fff3588ba97ab019a4d1df8a",
    "m_Id": -317295890,
    "m_DisplayName": "Color",
    "m_SlotType": 0,
    "m_Hidden": false,
    "m_ShaderOutputName": "Color_E73EE581",
    "m_StageCapability": 3,
    "m_Value": {
        "x": 1.0,
        "y": 0.8469998836517334,
        "z": 0.15566039085388184,
        "w": 0.0
    },
    "m_DefaultValue": {
        "x": 0.0,
        "y": 0.0,
        "z": 0.0,
        "w": 0.0
    },
    "m_Labels": []
}

{
    "m_SGVersion": 0,
    "m_Type": "UnityEditor.ShaderGraph.Vector1MaterialSlot",
    "m_ObjectId": "d8c28d00edf8a7818aff007f6d54f96d",
    "m_Id": 0,
    "m_DisplayName": "EdgeWidth",
    "m_SlotType": 1,
    "m_Hidden": false,
    "m_ShaderOutputName": "Out",
    "m_StageCapability": 3,
    "m_Value": 0.0,
    "m_DefaultValue": 0.0,
    "m_Labels": [
        "X"
    ]
}

{
    "m_SGVersion": 2,
    "m_Type": "UnityEditor.ShaderGraph.Internal.ColorShaderProperty",
    "m_ObjectId": "de43d538ef39dc8e80eb84dc5de3b2d6",
    "m_Guid": {
        "m_GuidSerialized": "11e30d18-12b2-4612-93f1-aa988cdf364f"
    },
    "m_Name": "EdgeColor",
    "m_DefaultReferenceName": "Color_321AC8F1",
    "m_OverrideReferenceName": "_EdgeColor",
    "m_GeneratePropertyBlock": true,
    "m_Precision": 0,
    "overrideHLSLDeclaration": false,
    "hlslDeclarationOverride": 0,
    "m_Hidden": false,
    "m_Value": {
        "r": 0.0,
        "g": 3.8901960849761965,
        "b": 4.0,
        "a": 0.0
    },
    "m_ColorMode": 1
}

{
    "m_SGVersion": 0,
    "m_Type": "UnityEditor.ShaderGraph.Vector1MaterialSlot",
    "m_ObjectId": "de4663d2e1214255aa9e34d6df55bea2",
    "m_Id": 0,
    "m_DisplayName": "Ambient Occlusion",
    "m_SlotType": 0,
    "m_Hidden": false,
    "m_ShaderOutputName": "Occlusion",
    "m_StageCapability": 2,
    "m_Value": 1.0,
    "m_DefaultValue": 1.0,
    "m_Labels": []
}

{
    "m_SGVersion": 0,
    "m_Type": "UnityEditor.ShaderGraph.Vector1MaterialSlot",
    "m_ObjectId": "de5083297fe2918da3877f9a4a1fc0cb",
    "m_Id": 3,
    "m_DisplayName": "Out_AlphaClip",
    "m_SlotType": 1,
    "m_Hidden": false,
    "m_ShaderOutputName": "OutAlphaClip",
    "m_StageCapability": 3,
    "m_Value": 0.0,
    "m_DefaultValue": 0.0,
    "m_Labels": [
        "X"
    ]
}

{
    "m_SGVersion": 0,
    "m_Type": "UnityEditor.ShaderGraph.BlockNode",
    "m_ObjectId": "df0fc576274341dcb75aff55b78fd89c",
    "m_Group": {
        "m_Id": ""
    },
    "m_Name": "SurfaceDescription.Emission",
    "m_DrawState": {
        "m_Expanded": true,
        "m_Position": {
            "serializedVersion": "2",
            "x": 0.0,
            "y": 0.0,
            "width": 0.0,
            "height": 0.0
        }
    },
    "m_Slots": [
        {
            "m_Id": "e6a564170e5d4222b2b4c1b9fc4c63fd"
        }
    ],
    "synonyms": [],
    "m_Precision": 0,
    "m_PreviewExpanded": true,
    "m_PreviewMode": 0,
    "m_CustomColors": {
        "m_SerializableColors": []
    },
    "m_SerializedDescriptor": "SurfaceDescription.Emission"
}

{
    "m_SGVersion": 0,
    "m_Type": "UnityEditor.ShaderGraph.Vector1MaterialSlot",
    "m_ObjectId": "df5becf8383f348abf4a0772b8754edc",
    "m_Id": 2,
    "m_DisplayName": "Out_Alpha",
    "m_SlotType": 1,
    "m_Hidden": false,
    "m_ShaderOutputName": "OutAlpha",
    "m_StageCapability": 3,
    "m_Value": 0.0,
    "m_DefaultValue": 0.0,
    "m_Labels": [
        "X"
    ]
}

{
    "m_SGVersion": 0,
    "m_Type": "UnityEditor.ShaderGraph.TangentMaterialSlot",
    "m_ObjectId": "e0958bf66aac4e699f3f24a586e602f0",
    "m_Id": 0,
    "m_DisplayName": "Tangent",
    "m_SlotType": 0,
    "m_Hidden": false,
    "m_ShaderOutputName": "Tangent",
    "m_StageCapability": 1,
    "m_Value": {
        "x": 0.0,
        "y": 0.0,
        "z": 0.0
    },
    "m_DefaultValue": {
        "x": 0.0,
        "y": 0.0,
        "z": 0.0
    },
    "m_Labels": [],
    "m_Space": 0
}

{
    "m_SGVersion": 0,
    "m_Type": "UnityEditor.ShaderGraph.ColorRGBMaterialSlot",
    "m_ObjectId": "e6a564170e5d4222b2b4c1b9fc4c63fd",
    "m_Id": 0,
    "m_DisplayName": "Emission",
    "m_SlotType": 0,
    "m_Hidden": false,
    "m_ShaderOutputName": "Emission",
    "m_StageCapability": 2,
    "m_Value": {
        "x": 0.0,
        "y": 0.0,
        "z": 0.0
    },
    "m_DefaultValue": {
        "x": 0.0,
        "y": 0.0,
        "z": 0.0
    },
    "m_Labels": [],
    "m_ColorMode": 1,
    "m_DefaultColor": {
        "r": 0.0,
        "g": 0.0,
        "b": 0.0,
        "a": 1.0
    }
}

{
    "m_SGVersion": 1,
    "m_Type": "UnityEditor.ShaderGraph.Internal.Vector2ShaderProperty",
    "m_ObjectId": "e79c5ce0fdc3f58cb35a29cc2e258bd0",
    "m_Guid": {
        "m_GuidSerialized": "fab5dfd8-e411-4903-b71a-97e3120360f9"
    },
    "m_Name": "NoiseUVSpeed",
    "m_DefaultReferenceName": "Vector2_42FDA84B",
    "m_OverrideReferenceName": "_NoiseUVSpeed",
    "m_GeneratePropertyBlock": true,
    "m_Precision": 0,
    "overrideHLSLDeclaration": false,
    "hlslDeclarationOverride": 0,
    "m_Hidden": false,
    "m_Value": {
        "x": 0.0,
        "y": 0.0,
        "z": 0.0,
        "w": 0.0
    }
}

{
    "m_SGVersion": 1,
    "m_Type": "UnityEditor.ShaderGraph.Internal.Vector2ShaderProperty",
    "m_ObjectId": "e84dd203e4b14c8f864c768192787933",
    "m_Guid": {
        "m_GuidSerialized": "ec512466-655e-4839-8c30-8ab3c5381c85"
    },
    "m_Name": "Tiling",
    "m_DefaultReferenceName": "Vector2_21C67DF3",
    "m_OverrideReferenceName": "_Tiling",
    "m_GeneratePropertyBlock": true,
    "m_Precision": 0,
    "overrideHLSLDeclaration": false,
    "hlslDeclarationOverride": 0,
    "m_Hidden": false,
    "m_Value": {
        "x": 1.0,
        "y": 1.0,
        "z": 0.0,
        "w": 0.0
    }
}

{
    "m_SGVersion": 0,
    "m_Type": "UnityEditor.ShaderGraph.Vector1MaterialSlot",
    "m_ObjectId": "eac17e714e437689b432c1903e1a9b43",
    "m_Id": 2,
    "m_DisplayName": "Out",
    "m_SlotType": 1,
    "m_Hidden": false,
    "m_ShaderOutputName": "Out",
    "m_StageCapability": 3,
    "m_Value": 0.0,
    "m_DefaultValue": 0.0,
    "m_Labels": [
        "X"
    ]
}

{
    "m_SGVersion": 1,
    "m_Type": "UnityEditor.ShaderGraph.Internal.Vector1ShaderProperty",
    "m_ObjectId": "eaeb04a10e589689b98b59dfeaf08cc5",
    "m_Guid": {
        "m_GuidSerialized": "f7cb2a48-eeff-4368-98d1-f93bff8c1c7b"
    },
    "m_Name": "Metallic",
    "m_DefaultReferenceName": "Vector1_8687EBE7",
    "m_OverrideReferenceName": "_Metallic",
    "m_GeneratePropertyBlock": true,
    "m_Precision": 0,
    "overrideHLSLDeclaration": false,
    "hlslDeclarationOverride": 0,
    "m_Hidden": false,
    "m_Value": 0.0,
    "m_FloatType": 1,
    "m_RangeValues": {
        "x": 0.0,
        "y": 1.0
    }
}

{
    "m_SGVersion": 0,
    "m_Type": "UnityEditor.ShaderGraph.Vector1MaterialSlot",
    "m_ObjectId": "f173de1712c7b885ae73cd2cd17c6bbe",
    "m_Id": -1649333937,
    "m_DisplayName": "Metallic",
    "m_SlotType": 0,
    "m_Hidden": false,
    "m_ShaderOutputName": "Vector1_AF14CD8F",
    "m_StageCapability": 2,
    "m_Value": 0.0,
    "m_DefaultValue": 0.0,
    "m_Labels": [
        "X"
    ]
}

{
    "m_SGVersion": 0,
    "m_Type": "UnityEditor.ShaderGraph.Vector2MaterialSlot",
    "m_ObjectId": "f5ff6cc6d05a2f8597eca924b0afde24",
    "m_Id": -23730825,
    "m_DisplayName": "Tiling",
    "m_SlotType": 0,
    "m_Hidden": false,
    "m_ShaderOutputName": "Vector2_CEDA4754",
    "m_StageCapability": 2,
    "m_Value": {
        "x": 0.0,
        "y": 0.0
    },
    "m_DefaultValue": {
        "x": 0.0,
        "y": 0.0
    },
    "m_Labels": [
        "X",
        "Y"
    ]
}

{
    "m_SGVersion": 0,
    "m_Type": "UnityEditor.ShaderGraph.ColorRGBMaterialSlot",
    "m_ObjectId": "f613b97177e642299face32b1047b11e",
    "m_Id": 0,
    "m_DisplayName": "Base Color",
    "m_SlotType": 0,
    "m_Hidden": false,
    "m_ShaderOutputName": "BaseColor",
    "m_StageCapability": 2,
    "m_Value": {
        "x": 0.7353569269180298,
        "y": 0.7353569269180298,
        "z": 0.7353569269180298
    },
    "m_DefaultValue": {
        "x": 0.0,
        "y": 0.0,
        "z": 0.0
    },
    "m_Labels": [],
    "m_ColorMode": 0,
    "m_DefaultColor": {
        "r": 0.5,
        "g": 0.5,
        "b": 0.5,
        "a": 1.0
    }
}

{
    "m_SGVersion": 0,
    "m_Type": "UnityEditor.ShaderGraph.Vector1MaterialSlot",
    "m_ObjectId": "f7586a74a49b7789b48691a28c87de7a",
    "m_Id": 0,
    "m_DisplayName": "Metallic",
    "m_SlotType": 1,
    "m_Hidden": false,
    "m_ShaderOutputName": "Out",
    "m_StageCapability": 3,
    "m_Value": 0.0,
    "m_DefaultValue": 0.0,
    "m_Labels": [
        "X"
    ]
}

{
    "m_SGVersion": 0,
    "m_Type": "UnityEditor.ShaderGraph.Vector1MaterialSlot",
    "m_ObjectId": "fbef70fa5e735984975eb3d82dc24d47",
    "m_Id": 0,
    "m_DisplayName": "NoiseScale",
    "m_SlotType": 1,
    "m_Hidden": false,
    "m_ShaderOutputName": "Out",
    "m_StageCapability": 3,
    "m_Value": 0.0,
    "m_DefaultValue": 0.0,
    "m_Labels": [
        "X"
    ]
}

