%YAML 1.1
%TAG !u! tag:unity3d.com,2011:
--- !u!114 &11400000
MonoBehaviour:
  m_ObjectHideFlags: 0
  m_CorrespondingSourceObject: {fileID: 0}
  m_PrefabInstance: {fileID: 0}
  m_PrefabAsset: {fileID: 0}
  m_GameObject: {fileID: 0}
  m_Enabled: 1
  m_EditorHideFlags: 0
  m_Script: {fileID: 11500000, guid: f434dfcb741d5e54797701d487553345, type: 3}
  m_Name: Knight02
  m_EditorClassIdentifier: 
  type: 12
  level: 1
  activeButtons: 01000000050000000c000000
  upgradePath: 
