%YAML 1.1
%TAG !u! tag:unity3d.com,2011:
--- !u!114 &11400000
MonoBehaviour:
  m_ObjectHideFlags: 0
  m_CorrespondingSourceObject: {fileID: 0}
  m_PrefabInstance: {fileID: 0}
  m_PrefabAsset: {fileID: 0}
  m_GameObject: {fileID: 0}
  m_Enabled: 1
  m_EditorHideFlags: 0
  m_Script: {fileID: 11500000, guid: a4f432fd4bad13d4ca2f34ef01762886, type: 3}
  m_Name: Infantry
  m_EditorClassIdentifier: 
  towerType: 3
  cost: 20
  health: 10
  attackRange: 3
  attackDamage: 1
  attackCooldown: 2
